<?xml version="1.0" encoding="UTF-8"?>

<svg version="1.2" baseProfile="tiny" width="210mm" height="297mm" viewBox="0 0 21000 29700" preserveAspectRatio="xMidYMid" fill-rule="evenodd" clip-path="url(#presentation_clip_path)" stroke-width="28.222" stroke-linejoin="round" xmlns="http://www.w3.org/2000/svg" xmlns:ooo="http://xml.openoffice.org/svg/export" xmlns:xlink="http://www.w3.org/1999/xlink" xml:space="preserve">
 <defs class="ClipPathGroup">
  <clipPath id="presentation_clip_path" clipPathUnits="userSpaceOnUse">
   <rect x="0" y="0" width="21000" height="29700"/>
  </clipPath>
 </defs>
 <defs>
  <font id="EmbeddedFont_1" horiz-adv-x="2048">
   <font-face font-family="Liberation Sans embedded" units-per-em="2048" font-weight="normal" font-style="normal" ascent="1852" descent="450"/>
   <missing-glyph horiz-adv-x="2048" d="M 0,0 L 2047,0 2047,2047 0,2047 0,0 Z"/>
   <glyph unicode="→" horiz-adv-x="1244" d="M 1407,637 C 1388,660 1368,687 1349,720 1329,753 1309,791 1288,834 L 1360,834 C 1399,789 1440,747 1483,710 1526,673 1575,640 1630,612 L 1630,576 C 1575,548 1526,515 1483,478 1440,441 1399,399 1360,354 L 1288,354 C 1309,397 1329,435 1349,468 1368,501 1388,528 1407,551 L 418,551 418,637 1407,637 Z"/>
   <glyph unicode="”" horiz-adv-x="557" d="M 607,1264 C 607,1229 605,1197 602,1168 599,1139 594,1113 588,1088 581,1063 573,1039 563,1017 553,995 541,973 528,952 L 407,952 C 437,995 460,1039 477,1083 493,1127 501,1171 501,1214 L 413,1214 413,1409 607,1409 607,1264 Z M 276,1264 C 276,1229 275,1197 272,1168 269,1139 264,1113 257,1088 250,1063 242,1039 233,1017 223,995 211,973 198,952 L 75,952 C 105,995 128,1039 145,1083 161,1127 169,1171 169,1214 L 81,1214 81,1409 276,1409 276,1264 Z"/>
   <glyph unicode="“" horiz-adv-x="557" d="M 407,952 L 407,1098 C 407,1133 409,1164 412,1193 415,1222 420,1249 427,1274 433,1299 441,1322 451,1344 460,1366 472,1388 485,1409 L 607,1409 C 577,1366 554,1322 538,1278 521,1234 513,1190 513,1147 L 601,1147 601,952 407,952 Z M 75,952 L 75,1098 C 75,1133 77,1164 80,1193 83,1222 88,1249 95,1274 102,1299 110,1322 120,1344 130,1366 142,1388 155,1409 L 276,1409 C 246,1366 223,1322 206,1278 189,1234 181,1190 181,1147 L 270,1147 270,952 75,952 Z"/>
   <glyph unicode="–" horiz-adv-x="1139" d="M 0,451 L 0,588 1138,588 1138,451 0,451 Z"/>
   <glyph unicode="y" horiz-adv-x="1033" d="M 604,1 C 579,-64 553,-123 527,-175 500,-227 471,-272 438,-309 405,-346 369,-374 329,-394 289,-413 243,-423 191,-423 168,-423 147,-423 128,-423 109,-423 88,-420 67,-414 L 67,-279 C 80,-282 94,-284 110,-284 126,-284 140,-284 151,-284 204,-284 253,-264 298,-225 343,-186 383,-123 417,-37 L 434,6 5,1082 197,1082 425,484 C 432,466 440,442 451,412 461,382 471,352 482,322 492,292 501,265 509,241 517,217 522,202 523,196 525,203 530,218 538,240 545,261 554,285 564,312 573,339 583,366 593,393 603,420 611,444 618,464 L 830,1082 1020,1082 604,1 Z"/>
   <glyph unicode="x" horiz-adv-x="1006" d="M 801,0 L 510,444 217,0 23,0 408,556 41,1082 240,1082 510,661 778,1082 979,1082 612,558 1002,0 801,0 Z"/>
   <glyph unicode="w" horiz-adv-x="1509" d="M 1174,0 L 965,0 792,698 C 787,716 781,738 776,765 770,792 764,818 759,843 752,872 746,903 740,934 734,904 728,874 721,845 716,820 710,793 704,766 697,739 691,715 686,694 L 508,0 300,0 -3,1082 175,1082 358,347 C 363,332 367,313 372,291 377,268 381,246 386,225 391,200 396,175 401,149 406,174 412,199 418,223 423,244 429,265 434,286 439,307 444,325 448,339 L 644,1082 837,1082 1026,339 C 1031,322 1036,302 1041,280 1046,258 1051,237 1056,218 1061,195 1067,172 1072,149 1077,174 1083,199 1088,223 1093,244 1098,265 1103,288 1108,310 1112,330 1117,347 L 1308,1082 1484,1082 1174,0 Z"/>
   <glyph unicode="v" horiz-adv-x="1033" d="M 613,0 L 400,0 7,1082 199,1082 437,378 C 442,363 447,346 454,325 460,304 466,282 473,259 480,236 486,215 492,194 497,173 502,155 506,141 510,155 515,173 522,194 528,215 534,236 541,258 548,280 555,302 562,323 569,344 575,361 580,376 L 826,1082 1017,1082 613,0 Z"/>
   <glyph unicode="u" horiz-adv-x="874" d="M 314,1082 L 314,396 C 314,343 318,299 326,264 333,229 346,200 363,179 380,157 403,142 432,133 460,124 495,119 537,119 580,119 618,127 653,142 687,157 716,178 741,207 765,235 784,270 797,312 810,353 817,401 817,455 L 817,1082 997,1082 997,231 C 997,208 997,185 998,160 998,135 998,111 999,89 1000,66 1000,47 1001,31 1002,15 1002,5 1003,0 L 833,0 C 832,3 832,12 831,27 830,42 830,59 829,78 828,97 827,116 826,136 825,155 825,172 825,185 L 822,185 C 805,154 786,125 765,100 744,75 720,53 693,36 666,18 634,4 599,-6 564,-15 523,-20 476,-20 416,-20 364,-13 321,2 278,17 242,39 214,70 186,101 166,140 153,188 140,236 133,294 133,361 L 133,1082 314,1082 Z"/>
   <glyph unicode="t" horiz-adv-x="531" d="M 554,8 C 527,1 499,-5 471,-10 442,-14 409,-16 372,-16 228,-16 156,66 156,229 L 156,951 31,951 31,1082 163,1082 216,1324 336,1324 336,1082 536,1082 536,951 336,951 336,268 C 336,216 345,180 362,159 379,138 408,127 450,127 467,127 484,128 501,131 517,134 535,137 554,141 L 554,8 Z"/>
   <glyph unicode="s" horiz-adv-x="901" d="M 950,299 C 950,248 940,203 921,164 901,124 872,91 835,64 798,37 752,16 698,2 643,-13 581,-20 511,-20 448,-20 392,-15 342,-6 291,4 247,20 209,41 171,62 139,91 114,126 88,161 69,203 57,254 L 216,285 C 231,227 263,185 311,158 359,131 426,117 511,117 550,117 585,120 618,125 650,130 678,140 701,153 724,166 743,183 756,205 769,226 775,253 775,285 775,318 767,345 752,366 737,387 715,404 688,418 661,432 628,444 589,455 550,465 507,476 460,489 417,500 374,513 331,527 288,541 250,560 216,583 181,606 153,634 132,668 111,702 100,745 100,796 100,895 135,970 206,1022 276,1073 378,1099 513,1099 632,1099 727,1078 798,1036 868,994 912,927 931,834 L 769,814 C 763,842 752,866 736,885 720,904 701,919 678,931 655,942 630,951 602,956 573,961 544,963 513,963 432,963 372,951 333,926 294,901 275,864 275,814 275,785 282,761 297,742 311,723 331,707 357,694 382,681 413,669 449,660 485,650 525,640 568,629 597,622 626,614 656,606 686,597 715,587 744,576 772,564 799,550 824,535 849,519 870,500 889,478 908,456 923,430 934,401 945,372 950,338 950,299 Z"/>
   <glyph unicode="r" horiz-adv-x="530" d="M 142,0 L 142,830 C 142,853 142,876 142,900 141,923 141,946 140,968 139,990 139,1011 138,1030 137,1049 137,1067 136,1082 L 306,1082 C 307,1067 308,1049 309,1030 310,1010 311,990 312,969 313,948 313,929 314,910 314,891 314,874 314,861 L 318,861 C 331,902 344,938 359,969 373,999 390,1024 409,1044 428,1063 451,1078 478,1088 505,1097 537,1102 575,1102 590,1102 604,1101 617,1099 630,1096 641,1094 648,1092 L 648,927 C 636,930 622,933 606,935 590,936 572,937 552,937 511,937 476,928 447,909 418,890 394,865 376,832 357,799 344,759 335,714 326,668 322,618 322,564 L 322,0 142,0 Z"/>
   <glyph unicode="p" horiz-adv-x="953" d="M 1053,546 C 1053,464 1046,388 1033,319 1020,250 998,190 967,140 936,90 895,51 844,23 793,-6 730,-20 655,-20 578,-20 510,-5 452,24 394,53 350,101 319,168 L 314,168 C 315,167 315,161 316,150 316,139 316,126 317,110 317,94 317,76 318,57 318,37 318,17 318,-2 L 318,-425 138,-425 138,861 C 138,887 138,912 138,936 137,960 137,982 136,1002 135,1021 135,1038 134,1052 133,1066 133,1076 132,1082 L 306,1082 C 307,1080 308,1073 309,1061 310,1049 311,1035 312,1018 313,1001 314,982 315,963 316,944 316,925 316,908 L 320,908 C 337,943 356,972 377,997 398,1021 423,1041 450,1057 477,1072 508,1084 542,1091 575,1098 613,1101 655,1101 730,1101 793,1088 844,1061 895,1034 936,997 967,949 998,900 1020,842 1033,774 1046,705 1053,629 1053,546 Z M 864,542 C 864,609 860,668 852,720 844,772 830,816 811,852 791,888 765,915 732,934 699,953 658,962 609,962 569,962 531,956 496,945 461,934 430,912 404,880 377,848 356,804 341,748 326,691 318,618 318,528 318,451 324,387 337,334 350,281 368,238 393,205 417,172 447,149 483,135 519,120 560,113 607,113 657,113 699,123 732,142 765,161 791,189 811,226 830,263 844,308 852,361 860,414 864,474 864,542 Z"/>
   <glyph unicode="o" horiz-adv-x="980" d="M 1053,542 C 1053,353 1011,212 928,119 845,26 724,-20 565,-20 490,-20 422,-9 363,14 304,37 254,71 213,118 172,165 140,223 119,294 97,364 86,447 86,542 86,915 248,1102 571,1102 655,1102 728,1090 789,1067 850,1044 900,1009 939,962 978,915 1006,857 1025,787 1044,717 1053,635 1053,542 Z M 864,542 C 864,626 858,695 845,750 832,805 813,848 788,881 763,914 732,937 696,950 660,963 619,969 574,969 528,969 487,962 450,949 413,935 381,912 355,879 329,846 309,802 296,747 282,692 275,624 275,542 275,458 282,389 297,334 312,279 332,235 358,202 383,169 414,146 449,133 484,120 522,113 563,113 609,113 651,120 688,133 725,146 757,168 783,201 809,234 829,278 843,333 857,388 864,458 864,542 Z"/>
   <glyph unicode="n" horiz-adv-x="874" d="M 825,0 L 825,686 C 825,739 821,783 814,818 806,853 793,882 776,904 759,925 736,941 708,950 679,959 644,963 602,963 559,963 521,956 487,941 452,926 423,904 399,876 374,847 355,812 342,771 329,729 322,681 322,627 L 322,0 142,0 142,851 C 142,874 142,898 142,923 141,948 141,971 140,994 139,1016 139,1035 138,1051 137,1067 137,1077 136,1082 L 306,1082 C 307,1079 307,1070 308,1055 309,1040 310,1024 311,1005 312,986 312,966 313,947 314,927 314,910 314,897 L 317,897 C 334,928 353,957 374,982 395,1007 419,1029 446,1047 473,1064 505,1078 540,1088 575,1097 616,1102 663,1102 723,1102 775,1095 818,1080 861,1065 897,1043 925,1012 953,981 974,942 987,894 1000,845 1006,788 1006,721 L 1006,0 825,0 Z"/>
   <glyph unicode="m" horiz-adv-x="1457" d="M 768,0 L 768,686 C 768,739 765,783 758,818 751,853 740,882 725,904 709,925 688,941 663,950 638,959 607,963 570,963 532,963 498,956 467,941 436,926 410,904 389,876 367,847 350,812 339,771 327,729 321,681 321,627 L 321,0 142,0 142,851 C 142,874 142,898 142,923 141,948 141,971 140,994 139,1016 139,1035 138,1051 137,1067 137,1077 136,1082 L 306,1082 C 307,1079 307,1070 308,1055 309,1040 310,1024 311,1005 312,986 312,966 313,947 314,927 314,910 314,897 L 317,897 C 333,928 350,957 369,982 388,1007 410,1029 435,1047 460,1064 488,1078 521,1088 553,1097 590,1102 633,1102 715,1102 780,1086 828,1053 875,1020 908,968 927,897 L 930,897 C 946,928 964,957 984,982 1004,1007 1027,1029 1054,1047 1081,1064 1111,1078 1144,1088 1177,1097 1215,1102 1258,1102 1313,1102 1360,1095 1400,1080 1439,1065 1472,1043 1497,1012 1522,981 1541,942 1553,894 1565,845 1571,788 1571,721 L 1571,0 1393,0 1393,686 C 1393,739 1390,783 1383,818 1376,853 1365,882 1350,904 1334,925 1313,941 1288,950 1263,959 1232,963 1195,963 1157,963 1123,956 1092,942 1061,927 1035,906 1014,878 992,850 975,815 964,773 952,731 946,682 946,627 L 946,0 768,0 Z"/>
   <glyph unicode="l" horiz-adv-x="187" d="M 138,0 L 138,1484 318,1484 318,0 138,0 Z"/>
   <glyph unicode="k" horiz-adv-x="901" d="M 816,0 L 450,494 318,385 318,0 138,0 138,1484 318,1484 318,557 793,1082 1004,1082 565,617 1027,0 816,0 Z"/>
   <glyph unicode="i" horiz-adv-x="187" d="M 137,1312 L 137,1484 317,1484 317,1312 137,1312 Z M 137,0 L 137,1082 317,1082 317,0 137,0 Z"/>
   <glyph unicode="h" horiz-adv-x="874" d="M 317,897 C 337,934 359,965 382,991 405,1016 431,1037 459,1054 487,1071 518,1083 551,1091 584,1098 622,1102 663,1102 732,1102 789,1093 834,1074 878,1055 913,1029 939,996 964,962 982,922 992,875 1001,828 1006,777 1006,721 L 1006,0 825,0 825,686 C 825,732 822,772 817,807 811,842 800,871 784,894 768,917 745,934 716,946 687,957 649,963 602,963 559,963 521,955 487,940 452,925 423,903 399,875 374,847 355,813 342,773 329,733 322,688 322,638 L 322,0 142,0 142,1484 322,1484 322,1098 C 322,1076 322,1054 321,1032 320,1010 320,990 319,971 318,952 317,937 316,924 315,911 315,902 314,897 L 317,897 Z"/>
   <glyph unicode="g" horiz-adv-x="927" d="M 548,-425 C 486,-425 431,-419 383,-406 335,-393 294,-375 260,-352 226,-328 198,-300 177,-267 156,-234 140,-198 131,-158 L 312,-132 C 324,-182 351,-220 392,-248 433,-274 486,-288 553,-288 594,-288 631,-282 664,-271 697,-260 726,-241 749,-217 772,-191 790,-159 803,-119 816,-79 822,-30 822,27 L 822,201 820,201 C 807,174 790,148 771,123 751,98 727,75 699,56 670,37 637,21 600,10 563,-2 520,-8 472,-8 403,-8 345,4 296,27 247,50 207,84 176,130 145,176 122,233 108,302 93,370 86,449 86,539 86,626 93,704 108,773 122,842 145,901 178,950 210,998 252,1035 304,1061 355,1086 418,1099 492,1099 569,1099 635,1082 692,1047 748,1012 791,962 822,897 L 824,897 C 824,914 825,932 826,953 827,974 828,993 829,1012 830,1030 831,1046 832,1059 833,1072 835,1080 836,1082 L 1007,1082 C 1006,1076 1006,1066 1005,1052 1004,1037 1004,1020 1003,1000 1002,980 1002,958 1002,934 1001,909 1001,884 1001,858 L 1001,31 C 1001,-120 964,-234 890,-311 815,-387 701,-425 548,-425 Z M 822,541 C 822,616 814,681 798,735 781,788 760,832 733,866 706,900 676,925 642,941 607,957 572,965 536,965 490,965 451,957 418,941 385,925 357,900 336,866 314,831 298,787 288,734 277,680 272,616 272,541 272,463 277,398 288,345 298,292 314,249 335,216 356,183 383,160 416,146 449,132 488,125 533,125 569,125 604,133 639,148 673,163 704,188 731,221 758,254 780,297 797,350 814,403 822,466 822,541 Z"/>
   <glyph unicode="e" horiz-adv-x="980" d="M 276,503 C 276,446 282,394 294,347 305,299 323,258 348,224 372,189 403,163 441,144 479,125 525,115 578,115 656,115 719,131 766,162 813,193 844,233 861,281 L 1019,236 C 1008,206 992,176 972,146 951,115 924,88 890,64 856,39 814,19 763,4 712,-12 650,-20 578,-20 418,-20 296,28 213,123 129,218 87,360 87,548 87,649 100,735 125,806 150,876 185,933 229,977 273,1021 324,1053 383,1073 442,1092 504,1102 571,1102 662,1102 738,1087 799,1058 860,1029 909,988 946,937 983,885 1009,824 1025,754 1040,684 1048,608 1048,527 L 1048,503 276,503 Z M 862,641 C 852,755 823,838 775,891 727,943 658,969 568,969 538,969 507,964 474,955 441,945 410,928 382,903 354,878 330,845 311,803 292,760 281,706 278,641 L 862,641 Z"/>
   <glyph unicode="d" horiz-adv-x="927" d="M 821,174 C 788,105 744,55 689,25 634,-5 565,-20 484,-20 347,-20 247,26 183,118 118,210 86,349 86,536 86,913 219,1102 484,1102 566,1102 634,1087 689,1057 744,1027 788,979 821,914 L 823,914 C 823,921 823,931 823,946 822,960 822,975 822,991 821,1006 821,1021 821,1035 821,1049 821,1059 821,1065 L 821,1484 1001,1484 1001,223 C 1001,197 1001,172 1002,148 1002,124 1002,102 1003,82 1004,62 1004,45 1005,31 1006,16 1006,6 1007,0 L 835,0 C 834,7 833,16 832,29 831,41 830,55 829,71 828,87 827,104 826,122 825,139 825,157 825,174 L 821,174 Z M 275,542 C 275,467 280,403 289,350 298,297 313,253 334,219 355,184 381,159 413,143 445,127 484,119 530,119 577,119 619,127 656,142 692,157 722,182 747,217 771,251 789,296 802,351 815,406 821,474 821,554 821,631 815,696 802,749 789,802 771,844 746,877 721,910 691,933 656,948 620,962 579,969 532,969 488,969 450,961 418,946 386,931 359,906 338,872 317,838 301,794 291,740 280,685 275,619 275,542 Z"/>
   <glyph unicode="c" horiz-adv-x="901" d="M 275,546 C 275,484 280,427 289,375 298,323 313,278 334,241 355,203 384,174 419,153 454,132 497,122 548,122 612,122 666,139 709,173 752,206 778,258 788,328 L 970,328 C 964,283 951,239 931,197 911,155 884,118 850,86 815,54 773,28 724,9 675,-10 618,-20 553,-20 468,-20 396,-6 337,23 278,52 230,91 193,142 156,192 129,251 112,320 95,388 87,462 87,542 87,615 93,679 105,735 117,790 134,839 156,881 177,922 203,957 232,986 261,1014 293,1037 328,1054 362,1071 398,1083 436,1091 474,1098 512,1102 551,1102 612,1102 666,1094 713,1077 760,1060 801,1038 836,1009 870,980 898,945 919,906 940,867 955,824 964,779 L 779,765 C 770,825 746,873 708,908 670,943 616,961 546,961 495,961 452,953 418,936 383,919 355,893 334,859 313,824 298,781 289,729 280,677 275,616 275,546 Z"/>
   <glyph unicode="a" horiz-adv-x="1060" d="M 414,-20 C 305,-20 224,9 169,66 114,124 87,203 87,303 87,375 101,434 128,480 155,526 190,562 234,588 277,614 327,632 383,642 439,652 496,657 554,657 L 797,657 797,717 C 797,762 792,800 783,832 774,863 759,889 740,908 721,928 697,942 668,951 639,960 604,965 565,965 530,965 499,963 471,958 443,953 419,944 398,931 377,918 361,900 348,878 335,855 327,827 323,793 L 135,810 C 142,853 154,892 173,928 192,963 218,994 253,1020 287,1046 330,1066 382,1081 433,1095 496,1102 569,1102 705,1102 807,1071 876,1009 945,946 979,856 979,738 L 979,272 C 979,219 986,179 1000,152 1014,125 1041,111 1080,111 1090,111 1100,112 1110,113 1120,114 1130,116 1139,118 L 1139,6 C 1116,1 1094,-3 1072,-6 1049,-9 1025,-10 1000,-10 966,-10 937,-5 913,4 888,13 868,26 853,45 838,63 826,86 818,113 810,140 805,171 803,207 L 797,207 C 778,172 757,141 734,113 711,85 684,61 653,42 622,22 588,7 549,-4 510,-15 465,-20 414,-20 Z M 455,115 C 512,115 563,125 606,146 649,167 684,194 713,226 741,259 762,294 776,332 790,371 797,408 797,443 L 797,531 600,531 C 556,531 514,528 475,522 435,517 400,506 370,489 340,472 316,449 299,418 281,388 272,349 272,300 272,241 288,195 320,163 351,131 396,115 455,115 Z"/>
   <glyph unicode="W" horiz-adv-x="1932" d="M 1511,0 L 1283,0 1039,895 C 1032,920 1024,950 1016,985 1007,1020 1000,1053 993,1084 985,1121 977,1158 969,1196 960,1157 952,1120 944,1083 937,1051 929,1018 921,984 913,950 905,920 898,895 L 652,0 424,0 9,1409 208,1409 461,514 C 472,472 483,430 494,389 504,348 513,311 520,278 529,239 537,203 544,168 554,214 564,259 575,304 580,323 584,342 589,363 594,384 599,404 604,424 609,444 614,463 619,482 624,500 628,517 632,532 L 877,1409 1060,1409 1305,532 C 1309,517 1314,500 1319,482 1324,463 1329,444 1334,425 1339,405 1343,385 1348,364 1353,343 1357,324 1362,305 1373,260 1383,215 1393,168 1394,168 1397,180 1402,203 1407,226 1414,254 1422,289 1430,324 1439,361 1449,402 1458,442 1468,479 1478,514 L 1727,1409 1926,1409 1511,0 Z"/>
   <glyph unicode="U" horiz-adv-x="1192" d="M 731,-20 C 654,-20 580,-10 511,11 442,32 381,64 329,108 276,151 235,207 204,274 173,341 158,420 158,512 L 158,1409 349,1409 349,528 C 349,457 359,396 378,347 397,297 423,256 457,225 491,194 531,171 578,157 624,142 675,135 730,135 785,135 836,142 885,157 934,172 976,195 1013,227 1050,259 1079,301 1100,353 1121,404 1131,467 1131,541 L 1131,1409 1321,1409 1321,530 C 1321,436 1306,355 1275,286 1244,217 1201,159 1148,114 1095,69 1032,35 961,13 889,-9 812,-20 731,-20 Z"/>
   <glyph unicode="T" horiz-adv-x="1192" d="M 720,1253 L 720,0 530,0 530,1253 46,1253 46,1409 1204,1409 1204,1253 720,1253 Z"/>
   <glyph unicode="S" horiz-adv-x="1192" d="M 1272,389 C 1272,330 1261,275 1238,225 1215,175 1179,132 1131,96 1083,59 1023,31 950,11 877,-10 790,-20 690,-20 515,-20 378,11 280,72 182,133 120,222 93,338 L 278,375 C 287,338 302,305 321,275 340,245 367,219 400,198 433,176 473,159 522,147 571,135 629,129 697,129 754,129 806,134 853,144 900,153 941,168 975,188 1009,208 1036,234 1055,266 1074,297 1083,335 1083,379 1083,425 1073,462 1052,491 1031,520 1001,543 963,562 925,581 880,596 827,609 774,622 716,635 652,650 613,659 573,668 534,679 494,689 456,701 420,716 383,730 349,747 317,766 285,785 257,809 234,836 211,863 192,894 179,930 166,965 159,1006 159,1053 159,1120 173,1177 200,1225 227,1272 264,1311 312,1342 360,1373 417,1395 482,1409 547,1423 618,1430 694,1430 781,1430 856,1423 918,1410 980,1396 1032,1375 1075,1348 1118,1321 1152,1287 1178,1247 1203,1206 1224,1159 1239,1106 L 1051,1073 C 1042,1107 1028,1137 1011,1164 993,1191 970,1213 941,1231 912,1249 878,1263 837,1272 796,1281 747,1286 692,1286 627,1286 572,1280 528,1269 483,1257 448,1241 421,1221 394,1201 374,1178 363,1151 351,1124 345,1094 345,1063 345,1021 356,987 377,960 398,933 426,910 462,892 498,874 540,859 587,847 634,835 685,823 738,811 781,801 825,791 868,781 911,770 952,758 991,744 1030,729 1067,712 1102,693 1136,674 1166,650 1191,622 1216,594 1236,561 1251,523 1265,485 1272,440 1272,389 Z"/>
   <glyph unicode="R" horiz-adv-x="1244" d="M 1164,0 L 798,585 359,585 359,0 168,0 168,1409 831,1409 C 911,1409 982,1400 1044,1382 1105,1363 1157,1337 1199,1302 1241,1267 1273,1225 1295,1175 1317,1125 1328,1069 1328,1006 1328,961 1322,917 1309,874 1296,831 1275,791 1247,755 1219,719 1183,688 1140,662 1097,636 1045,618 984,607 L 1384,0 1164,0 Z M 1136,1004 C 1136,1047 1129,1084 1114,1115 1099,1146 1078,1173 1050,1194 1022,1215 988,1230 948,1241 908,1251 863,1256 812,1256 L 359,1256 359,736 820,736 C 875,736 922,743 962,757 1002,770 1035,789 1061,813 1086,837 1105,865 1118,898 1130,931 1136,966 1136,1004 Z"/>
   <glyph unicode="Q" horiz-adv-x="1430" d="M 1495,711 C 1495,612 1482,521 1457,439 1431,356 1394,284 1346,222 1297,160 1238,110 1168,71 1097,32 1017,6 928,-6 942,-49 958,-85 976,-115 993,-145 1013,-169 1036,-189 1059,-207 1084,-221 1112,-231 1139,-239 1170,-244 1204,-244 1223,-244 1243,-243 1264,-240 1285,-237 1304,-234 1319,-231 L 1319,-365 C 1294,-371 1266,-376 1236,-381 1205,-385 1174,-387 1141,-387 1084,-387 1034,-378 991,-361 948,-344 911,-319 879,-287 846,-255 818,-216 795,-170 772,-123 751,-71 733,-12 628,-12 535,7 456,46 376,84 310,136 257,200 204,265 164,340 137,427 110,513 97,607 97,709 97,819 112,919 143,1008 174,1097 219,1172 278,1235 337,1297 411,1346 498,1379 585,1413 684,1430 797,1430 909,1430 1009,1413 1096,1379 1183,1345 1256,1297 1315,1234 1374,1171 1418,1096 1449,1007 1480,918 1495,820 1495,711 Z M 1300,711 C 1300,796 1289,873 1268,942 1246,1011 1214,1071 1172,1120 1129,1169 1077,1207 1014,1234 951,1261 879,1274 797,1274 713,1274 639,1261 576,1234 513,1207 460,1169 418,1120 375,1071 344,1011 323,942 302,873 291,796 291,711 291,626 302,549 324,479 345,408 377,348 420,297 462,246 515,206 578,178 641,149 713,135 795,135 883,135 959,149 1023,178 1086,207 1139,247 1180,298 1221,349 1251,409 1271,480 1290,551 1300,628 1300,711 Z"/>
   <glyph unicode="N" horiz-adv-x="1165" d="M 1082,0 L 328,1200 C 329,1167 331,1135 333,1103 334,1076 336,1047 337,1017 338,986 338,959 338,936 L 338,0 168,0 168,1409 390,1409 1152,201 C 1150,234 1148,266 1146,299 1145,327 1143,358 1142,391 1141,424 1140,455 1140,485 L 1140,1409 1312,1409 1312,0 1082,0 Z"/>
   <glyph unicode="M" horiz-adv-x="1377" d="M 1366,0 L 1366,940 C 1366,974 1366,1009 1367,1044 1368,1079 1369,1112 1370,1141 1371,1175 1373,1208 1375,1240 1366,1206 1356,1172 1346,1139 1337,1110 1328,1080 1318,1048 1307,1015 1297,986 1287,960 L 923,0 789,0 420,960 C 416,970 412,982 408,995 403,1008 399,1023 394,1038 389,1053 384,1068 379,1084 374,1099 369,1115 364,1130 353,1165 342,1202 331,1240 332,1203 333,1166 334,1129 335,1098 336,1065 337,1031 338,996 338,966 338,940 L 338,0 168,0 168,1409 419,1409 794,432 C 799,419 804,402 811,381 818,360 824,338 830,316 836,294 842,273 847,254 852,234 855,219 857,208 859,219 863,234 868,254 873,274 880,295 887,317 894,339 900,360 907,381 914,402 920,419 925,432 L 1293,1409 1538,1409 1538,0 1366,0 Z"/>
   <glyph unicode="K" horiz-adv-x="1191" d="M 1106,0 L 543,680 359,540 359,0 168,0 168,1409 359,1409 359,703 1038,1409 1263,1409 663,797 1343,0 1106,0 Z"/>
   <glyph unicode="I" horiz-adv-x="213" d="M 189,0 L 189,1409 380,1409 380,0 189,0 Z"/>
   <glyph unicode="G" horiz-adv-x="1377" d="M 103,711 C 103,821 118,920 148,1009 177,1098 222,1173 281,1236 340,1298 413,1346 500,1380 587,1413 689,1430 804,1430 891,1430 967,1422 1032,1407 1097,1392 1154,1370 1202,1341 1250,1312 1291,1278 1324,1237 1357,1196 1386,1149 1409,1098 L 1227,1044 C 1210,1079 1189,1110 1165,1139 1140,1167 1111,1191 1076,1211 1041,1231 1001,1247 956,1258 910,1269 858,1274 799,1274 714,1274 640,1261 577,1234 514,1207 461,1169 420,1120 379,1071 348,1011 328,942 307,873 297,796 297,711 297,626 308,549 330,479 352,408 385,348 428,297 471,246 525,206 590,178 654,149 728,135 813,135 868,135 919,140 966,149 1013,158 1055,171 1093,186 1130,201 1163,217 1192,236 1221,254 1245,272 1264,291 L 1264,545 843,545 843,705 1440,705 1440,219 C 1409,187 1372,157 1330,128 1287,99 1240,73 1187,51 1134,29 1077,12 1014,-1 951,-14 884,-20 813,-20 694,-20 591,-2 502,35 413,71 340,122 281,187 222,252 177,329 148,418 118,507 103,605 103,711 Z"/>
   <glyph unicode="E" horiz-adv-x="1138" d="M 168,0 L 168,1409 1237,1409 1237,1253 359,1253 359,801 1177,801 1177,647 359,647 359,156 1278,156 1278,0 168,0 Z"/>
   <glyph unicode="D" horiz-adv-x="1218" d="M 1381,719 C 1381,602 1363,498 1328,409 1293,319 1244,244 1183,184 1122,123 1049,78 966,47 882,16 792,0 695,0 L 168,0 168,1409 634,1409 C 743,1409 843,1396 935,1369 1026,1342 1105,1300 1171,1244 1237,1187 1289,1116 1326,1029 1363,942 1381,839 1381,719 Z M 1189,719 C 1189,814 1175,896 1148,964 1121,1031 1082,1087 1033,1130 984,1173 925,1205 856,1226 787,1246 712,1256 630,1256 L 359,1256 359,153 673,153 C 747,153 816,165 879,189 942,213 996,249 1042,296 1088,343 1124,402 1150,473 1176,544 1189,626 1189,719 Z"/>
   <glyph unicode="C" horiz-adv-x="1324" d="M 792,1274 C 712,1274 641,1261 580,1234 518,1207 466,1169 425,1120 383,1071 351,1011 330,942 309,873 298,796 298,711 298,626 310,549 333,479 356,408 389,348 432,297 475,246 527,207 590,179 652,151 722,137 800,137 855,137 905,144 950,159 995,173 1035,193 1072,219 1108,245 1140,276 1169,312 1198,347 1223,387 1245,430 L 1401,352 C 1376,299 1344,250 1307,205 1270,160 1226,120 1176,87 1125,54 1068,28 1005,9 941,-10 870,-20 791,-20 677,-20 577,-2 492,35 406,71 334,122 277,187 219,252 176,329 147,418 118,507 104,605 104,711 104,821 119,920 150,1009 180,1098 224,1173 283,1236 341,1298 413,1346 498,1380 583,1413 681,1430 790,1430 940,1430 1065,1401 1166,1342 1267,1283 1341,1196 1388,1081 L 1207,1021 C 1194,1054 1176,1086 1153,1117 1130,1147 1102,1174 1068,1197 1034,1220 994,1239 949,1253 903,1267 851,1274 792,1274 Z"/>
   <glyph unicode="A" horiz-adv-x="1377" d="M 1167,0 L 1006,412 364,412 202,0 4,0 579,1409 796,1409 1362,0 1167,0 Z M 768,1026 C 757,1053 747,1080 738,1107 728,1134 719,1159 712,1182 705,1204 699,1223 694,1238 689,1253 686,1262 685,1265 684,1262 681,1252 676,1237 671,1222 665,1203 658,1180 650,1157 641,1132 632,1105 622,1078 612,1051 602,1024 L 422,561 949,561 768,1026 Z"/>
   <glyph unicode=":" horiz-adv-x="213" d="M 187,875 L 187,1082 382,1082 382,875 187,875 Z M 187,0 L 187,207 382,207 382,0 187,0 Z"/>
   <glyph unicode="8" horiz-adv-x="980" d="M 1050,393 C 1050,333 1041,278 1022,228 1003,177 974,134 935,97 896,60 846,32 785,11 724,-10 653,-20 570,-20 487,-20 416,-10 356,11 295,32 245,60 206,97 166,133 137,176 118,227 99,277 89,332 89,391 89,442 97,488 113,528 128,568 149,603 176,632 202,661 232,684 266,702 299,719 334,731 370,737 L 370,741 C 331,750 296,765 265,786 234,807 208,832 187,861 166,890 150,922 139,957 128,992 122,1030 122,1069 122,1118 132,1165 151,1209 170,1252 198,1291 235,1324 272,1357 319,1383 374,1402 429,1421 493,1430 566,1430 643,1430 709,1420 766,1401 822,1382 869,1356 906,1323 943,1290 970,1251 988,1207 1006,1163 1015,1116 1015,1067 1015,1028 1010,991 999,956 988,921 972,889 951,860 930,831 904,806 873,786 842,765 806,751 765,743 L 765,739 C 806,732 843,720 878,703 913,685 943,662 968,633 993,604 1013,569 1028,529 1043,489 1050,444 1050,393 Z M 828,1057 C 828,1092 824,1125 815,1154 806,1183 791,1209 770,1230 749,1251 722,1267 689,1279 656,1290 615,1296 566,1296 519,1296 479,1290 446,1279 413,1267 387,1251 366,1230 345,1209 329,1183 320,1154 311,1125 306,1092 306,1057 306,1029 310,1000 317,971 324,942 338,915 357,891 376,867 403,847 437,832 471,817 515,809 568,809 625,809 670,817 705,832 739,847 765,867 784,891 802,915 814,942 820,971 825,1000 828,1029 828,1057 Z M 863,410 C 863,444 858,477 849,509 840,540 824,568 801,593 778,617 748,637 710,652 671,667 623,674 566,674 513,674 469,667 432,652 395,637 365,617 342,592 319,567 302,539 291,507 280,474 275,441 275,406 275,363 280,323 291,288 302,252 319,221 342,196 365,170 396,150 434,136 472,122 518,115 572,115 627,115 673,122 710,136 747,150 777,170 800,196 823,221 839,252 849,289 858,325 863,365 863,410 Z"/>
   <glyph unicode="7" horiz-adv-x="954" d="M 1036,1263 C 965,1155 900,1051 841,952 782,852 731,752 688,651 645,550 612,446 589,340 565,233 553,120 553,0 L 365,0 C 365,113 378,223 405,332 432,440 468,546 513,651 558,755 611,857 671,958 731,1059 795,1158 862,1256 L 105,1256 105,1409 1036,1409 1036,1263 Z"/>
   <glyph unicode="5" horiz-adv-x="980" d="M 1053,459 C 1053,388 1042,324 1021,265 1000,206 968,156 926,114 884,71 832,38 770,15 707,-8 635,-20 553,-20 479,-20 415,-11 360,6 305,23 258,47 220,78 182,108 152,143 130,184 107,225 91,268 82,315 L 264,336 C 271,309 282,284 295,259 308,234 327,211 350,192 373,172 401,156 435,145 468,133 509,127 557,127 604,127 646,134 684,149 722,163 755,184 782,212 809,240 829,274 844,315 859,356 866,402 866,455 866,498 859,538 845,575 831,611 811,642 785,669 759,695 727,715 690,730 652,745 609,752 561,752 531,752 503,749 478,744 453,739 429,731 408,722 386,713 366,702 349,690 331,677 314,664 299,651 L 123,651 170,1409 971,1409 971,1256 334,1256 307,809 C 339,834 379,855 427,873 475,890 532,899 598,899 668,899 731,888 787,867 843,846 891,816 930,777 969,738 1000,691 1021,637 1042,583 1053,524 1053,459 Z"/>
   <glyph unicode="4" horiz-adv-x="1060" d="M 881,319 L 881,0 711,0 711,319 47,319 47,459 692,1409 881,1409 881,461 1079,461 1079,319 881,319 Z M 711,1206 C 710,1203 706,1196 701,1187 696,1177 690,1166 683,1154 676,1142 670,1130 663,1118 656,1105 649,1095 644,1087 L 283,555 C 280,550 275,543 269,534 262,525 256,517 249,508 242,499 236,490 229,481 222,472 217,466 213,461 L 711,461 711,1206 Z"/>
   <glyph unicode="3" horiz-adv-x="1006" d="M 1049,389 C 1049,324 1039,267 1018,216 997,165 966,123 926,88 885,53 835,26 776,8 716,-11 648,-20 571,-20 484,-20 410,-9 351,13 291,34 242,63 203,99 164,134 135,175 116,221 97,266 84,313 78,362 L 264,379 C 269,342 279,308 294,277 308,246 327,220 352,198 377,176 407,159 443,147 479,135 522,129 571,129 662,129 733,151 785,196 836,241 862,307 862,395 862,447 851,489 828,521 805,552 776,577 742,595 707,612 670,624 630,630 589,636 552,639 518,639 L 416,639 416,795 514,795 C 548,795 583,799 620,806 657,813 690,825 721,844 751,862 776,887 796,918 815,949 825,989 825,1038 825,1113 803,1173 759,1217 714,1260 648,1282 561,1282 482,1282 418,1262 369,1221 320,1180 291,1123 283,1049 L 102,1063 C 109,1125 126,1179 153,1225 180,1271 214,1309 255,1340 296,1370 342,1393 395,1408 448,1423 504,1430 563,1430 642,1430 709,1420 766,1401 823,1381 869,1354 905,1321 941,1287 968,1247 985,1202 1002,1157 1010,1108 1010,1057 1010,1016 1004,977 993,941 982,905 964,873 940,844 916,815 886,791 849,770 812,749 767,734 715,723 L 715,719 C 772,713 821,700 863,681 905,661 940,636 967,607 994,578 1015,544 1029,507 1042,470 1049,430 1049,389 Z"/>
   <glyph unicode="2" horiz-adv-x="954" d="M 103,0 L 103,127 C 137,205 179,274 228,334 277,393 328,447 382,496 436,544 490,589 543,630 596,671 643,713 686,754 729,795 763,839 790,884 816,929 829,981 829,1038 829,1078 823,1113 811,1144 799,1174 782,1199 759,1220 736,1241 709,1256 678,1267 646,1277 611,1282 572,1282 536,1282 502,1277 471,1267 439,1257 411,1242 386,1222 361,1202 341,1177 326,1148 310,1118 300,1083 295,1044 L 111,1061 C 117,1112 131,1159 153,1204 175,1249 205,1288 244,1322 283,1355 329,1382 384,1401 438,1420 501,1430 572,1430 642,1430 704,1422 759,1405 814,1388 860,1364 898,1331 935,1298 964,1258 984,1210 1004,1162 1014,1107 1014,1044 1014,997 1006,952 989,909 972,866 949,826 921,787 892,748 859,711 822,675 785,639 746,604 705,570 664,535 623,501 582,468 541,434 502,400 466,366 429,332 397,298 368,263 339,228 317,191 301,153 L 1036,153 1036,0 103,0 Z"/>
   <glyph unicode="1" horiz-adv-x="927" d="M 156,0 L 156,153 515,153 515,1237 197,1010 197,1180 530,1409 696,1409 696,153 1039,153 1039,0 156,0 Z"/>
   <glyph unicode="0" horiz-adv-x="980" d="M 1059,705 C 1059,570 1046,456 1021,364 995,271 960,197 916,140 871,83 819,42 759,17 699,-8 635,-20 567,-20 498,-20 434,-8 375,17 316,42 264,82 221,139 177,196 143,270 118,363 93,455 80,569 80,705 80,847 93,965 118,1058 143,1151 177,1225 221,1280 265,1335 317,1374 377,1397 437,1419 502,1430 573,1430 640,1430 704,1419 763,1397 822,1374 873,1335 917,1280 961,1225 996,1151 1021,1058 1046,965 1059,847 1059,705 Z M 876,705 C 876,817 869,910 856,985 843,1059 823,1118 797,1163 771,1207 739,1238 702,1257 664,1275 621,1284 573,1284 522,1284 478,1275 439,1256 400,1237 368,1206 342,1162 315,1117 295,1058 282,984 269,909 262,816 262,705 262,597 269,506 283,432 296,358 316,299 343,254 369,209 401,176 439,157 477,137 520,127 569,127 616,127 659,137 697,157 735,176 767,209 794,254 820,299 840,358 855,432 869,506 876,597 876,705 Z"/>
   <glyph unicode="-" horiz-adv-x="531" d="M 91,464 L 91,624 591,624 591,464 91,464 Z"/>
   <glyph unicode="," horiz-adv-x="239" d="M 385,219 L 385,51 C 385,16 384,-16 381,-46 378,-74 373,-101 366,-127 359,-151 351,-175 342,-197 332,-219 320,-241 307,-262 L 184,-262 C 214,-219 237,-175 254,-131 270,-87 278,-43 278,0 L 190,0 190,219 385,219 Z"/>
   <glyph unicode=" " horiz-adv-x="556"/>
  </font>
 </defs>
 <defs class="TextShapeIndex">
  <g ooo:slide="id1" ooo:id-list="id3 id4 id5 id6 id7 id8 id9 id10 id11 id12 id13 id14 id15 id16 id17 id18 id19 id20 id21 id22 id23 id24 id25 id26 id27 id28 id29 id30 id31 id32 id33 id34 id35 id36 id37 id38 id39 id40 id41 id42 id43 id44 id45 id46"/>
 </defs>
 <defs class="EmbeddedBulletChars">
  <g id="bullet-char-template(57356)" transform="scale(0.00048828125,-0.00048828125)">
   <path d="M 580,1141 L 1163,571 580,0 -4,571 580,1141 Z"/>
  </g>
  <g id="bullet-char-template(57354)" transform="scale(0.00048828125,-0.00048828125)">
   <path d="M 8,1128 L 1137,1128 1137,0 8,0 8,1128 Z"/>
  </g>
  <g id="bullet-char-template(10146)" transform="scale(0.00048828125,-0.00048828125)">
   <path d="M 174,0 L 602,739 174,1481 1456,739 174,0 Z M 1358,739 L 309,1346 659,739 1358,739 Z"/>
  </g>
  <g id="bullet-char-template(10132)" transform="scale(0.00048828125,-0.00048828125)">
   <path d="M 2015,739 L 1276,0 717,0 1260,543 174,543 174,936 1260,936 717,1481 1274,1481 2015,739 Z"/>
  </g>
  <g id="bullet-char-template(10007)" transform="scale(0.00048828125,-0.00048828125)">
   <path d="M 0,-2 C -7,14 -16,27 -25,37 L 356,567 C 262,823 215,952 215,954 215,979 228,992 255,992 264,992 276,990 289,987 310,991 331,999 354,1012 L 381,999 492,748 772,1049 836,1024 860,1049 C 881,1039 901,1025 922,1006 886,937 835,863 770,784 769,783 710,716 594,584 L 774,223 C 774,196 753,168 711,139 L 727,119 C 717,90 699,76 672,76 641,76 570,178 457,381 L 164,-76 C 142,-110 111,-127 72,-127 30,-127 9,-110 8,-76 1,-67 -2,-52 -2,-32 -2,-23 -1,-13 0,-2 Z"/>
  </g>
  <g id="bullet-char-template(10004)" transform="scale(0.00048828125,-0.00048828125)">
   <path d="M 285,-33 C 182,-33 111,30 74,156 52,228 41,333 41,471 41,549 55,616 82,672 116,743 169,778 240,778 293,778 328,747 346,684 L 369,508 C 377,444 397,411 428,410 L 1163,1116 C 1174,1127 1196,1133 1229,1133 1271,1133 1292,1118 1292,1087 L 1292,965 C 1292,929 1282,901 1262,881 L 442,47 C 390,-6 338,-33 285,-33 Z"/>
  </g>
  <g id="bullet-char-template(9679)" transform="scale(0.00048828125,-0.00048828125)">
   <path d="M 813,0 C 632,0 489,54 383,161 276,268 223,411 223,592 223,773 276,916 383,1023 489,1130 632,1184 813,1184 992,1184 1136,1130 1245,1023 1353,916 1407,772 1407,592 1407,412 1353,268 1245,161 1136,54 992,0 813,0 Z"/>
  </g>
  <g id="bullet-char-template(8226)" transform="scale(0.00048828125,-0.00048828125)">
   <path d="M 346,457 C 273,457 209,483 155,535 101,586 74,649 74,723 74,796 101,859 155,911 209,963 273,989 346,989 419,989 480,963 531,910 582,859 608,796 608,723 608,648 583,586 532,535 482,483 420,457 346,457 Z"/>
  </g>
  <g id="bullet-char-template(8211)" transform="scale(0.00048828125,-0.00048828125)">
   <path d="M -4,459 L 1135,459 1135,606 -4,606 -4,459 Z"/>
  </g>
 </defs>
 <defs class="TextEmbeddedBitmaps"/>
 <g>
  <g id="id2" class="Master_Slide">
   <g id="bg-id2" class="Background"/>
   <g id="bo-id2" class="BackgroundObjects"/>
  </g>
 </g>
 <g class="SlideGroup">
  <g>
   <g id="id1" class="Slide" clip-path="url(#presentation_clip_path)">
    <g class="Page">
     <g class="com.sun.star.drawing.CustomShape">
      <g id="id3">
       <path fill="rgb(255,255,255)" stroke="none" d="M 13523,16367 L 7236,16367 7236,7223 19809,7223 19809,16367 13523,16367 Z"/>
       <path fill="none" stroke="rgb(52,101,164)" d="M 13523,16367 L 7236,16367 7236,7223 19809,7223 19809,16367 13523,16367 Z"/>
      </g>
     </g>
     <g class="com.sun.star.drawing.CustomShape">
      <g id="id4">
       <path fill="rgb(238,238,238)" stroke="none" d="M 9890,5445 L 1381,5445 1381,1635 18399,1635 18399,5445 9890,5445 Z"/>
       <path fill="none" stroke="rgb(238,238,238)" d="M 9890,5445 L 1381,5445 1381,1635 18399,1635 18399,5445 9890,5445 Z"/>
      </g>
     </g>
     <g class="com.sun.star.drawing.TextShape">
      <g id="id5">
       <text class="TextShape"><tspan class="TextParagraph" font-family="Liberation Sans, sans-serif" font-size="635px" font-weight="400"><tspan class="TextPosition" x="8030" y="2372"><tspan fill="rgb(0,0,0)" stroke="none">User Query</tspan></tspan></tspan></text>
      </g>
     </g>
     <g class="com.sun.star.drawing.CustomShape">
      <g id="id6">
       <path fill="rgb(153,204,204)" stroke="none" d="M 2163,2631 C 1962,2631 1761,2832 1761,3033 L 1761,4642 C 1761,4843 1962,5045 2163,5045 L 6566,5045 C 6767,5045 6969,4843 6969,4642 L 6969,3033 C 6969,2832 6767,2631 6566,2631 L 2163,2631 Z M 1761,2631 L 1761,2631 Z M 6969,5045 L 6969,5045 Z"/>
       <path fill="none" stroke="rgb(52,101,164)" d="M 2163,2631 C 1962,2631 1761,2832 1761,3033 L 1761,4642 C 1761,4843 1962,5045 2163,5045 L 6566,5045 C 6767,5045 6969,4843 6969,4642 L 6969,3033 C 6969,2832 6767,2631 6566,2631 L 2163,2631 Z"/>
       <path fill="none" stroke="rgb(52,101,164)" d="M 1761,2631 L 1761,2631 Z"/>
       <path fill="none" stroke="rgb(52,101,164)" d="M 6969,5045 L 6969,5045 Z"/>
       <text class="TextShape"><tspan class="TextParagraph" font-family="Liberation Sans, sans-serif" font-size="564px" font-weight="400"><tspan class="TextPosition" x="2872" y="3715"><tspan fill="rgb(0,0,0)" stroke="none">Time range:</tspan></tspan></tspan><tspan class="TextParagraph" font-family="Liberation Sans, sans-serif" font-size="564px" font-weight="400"><tspan class="TextPosition" x="2174" y="4350"><tspan fill="rgb(0,0,0)" stroke="none">“</tspan><tspan fill="rgb(0,0,0)" stroke="none">Nov 25-28 2014”</tspan></tspan></tspan></text>
      </g>
     </g>
     <g class="com.sun.star.drawing.CustomShape">
      <g id="id7">
       <path fill="rgb(153,204,204)" stroke="none" d="M 7751,2631 C 7550,2631 7349,2832 7349,3033 L 7349,4642 C 7349,4843 7550,5045 7751,5045 L 11900,5045 C 12101,5045 12303,4843 12303,4642 L 12303,3033 C 12303,2832 12101,2631 11900,2631 L 7751,2631 Z M 7349,2631 L 7349,2631 Z M 12303,5045 L 12303,5045 Z"/>
       <path fill="none" stroke="rgb(52,101,164)" d="M 7751,2631 C 7550,2631 7349,2832 7349,3033 L 7349,4642 C 7349,4843 7550,5045 7751,5045 L 11900,5045 C 12101,5045 12303,4843 12303,4642 L 12303,3033 C 12303,2832 12101,2631 11900,2631 L 7751,2631 Z"/>
       <path fill="none" stroke="rgb(52,101,164)" d="M 7349,2631 L 7349,2631 Z"/>
       <path fill="none" stroke="rgb(52,101,164)" d="M 12303,5045 L 12303,5045 Z"/>
       <text class="TextShape"><tspan class="TextParagraph" font-family="Liberation Sans, sans-serif" font-size="564px" font-weight="400"><tspan class="TextPosition" x="8509" y="3715"><tspan fill="rgb(0,0,0)" stroke="none">Keywords:</tspan></tspan></tspan><tspan class="TextParagraph" font-family="Liberation Sans, sans-serif" font-size="564px" font-weight="400"><tspan class="TextPosition" x="7976" y="4350"><tspan fill="rgb(0,0,0)" stroke="none">“</tspan><tspan fill="rgb(0,0,0)" stroke="none">Thanksgiving”</tspan></tspan></tspan></text>
      </g>
     </g>
     <g class="com.sun.star.drawing.CustomShape">
      <g id="id8">
       <path fill="rgb(153,204,204)" stroke="none" d="M 13085,2631 C 12884,2631 12683,2832 12683,3033 L 12683,4642 C 12683,4843 12884,5045 13085,5045 L 17234,5045 C 17435,5045 17637,4843 17637,4642 L 17637,3033 C 17637,2832 17435,2631 17234,2631 L 13085,2631 Z M 12683,2631 L 12683,2631 Z M 17637,5045 L 17637,5045 Z"/>
       <path fill="none" stroke="rgb(52,101,164)" d="M 13085,2631 C 12884,2631 12683,2832 12683,3033 L 12683,4642 C 12683,4843 12884,5045 13085,5045 L 17234,5045 C 17435,5045 17637,4843 17637,4642 L 17637,3033 C 17637,2832 17435,2631 17234,2631 L 13085,2631 Z"/>
       <path fill="none" stroke="rgb(52,101,164)" d="M 12683,2631 L 12683,2631 Z"/>
       <path fill="none" stroke="rgb(52,101,164)" d="M 17637,5045 L 17637,5045 Z"/>
       <text class="TextShape"><tspan class="TextParagraph" font-family="Liberation Sans, sans-serif" font-size="564px" font-weight="400"><tspan class="TextPosition" x="13752" y="3715"><tspan fill="rgb(0,0,0)" stroke="none">Geo range:</tspan></tspan></tspan><tspan class="TextParagraph" font-family="Liberation Sans, sans-serif" font-size="564px" font-weight="400"><tspan class="TextPosition" x="13092" y="4350"><tspan fill="rgb(0,0,0)" stroke="none">“</tspan><tspan fill="rgb(0,0,0)" stroke="none">Chicago-Miami”</tspan></tspan></tspan></text>
      </g>
     </g>
     <g class="com.sun.star.drawing.CustomShape">
      <g id="id9">
       <path fill="rgb(255,255,255)" stroke="none" d="M 3168,7703 L 5517,7703 6820,9005 6820,10846 5517,12149 3168,12149 1866,10846 1866,9005 3168,7703 Z M 1866,7703 L 1866,7703 Z M 6820,12149 L 6820,12149 Z"/>
       <path fill="none" stroke="rgb(52,101,164)" d="M 3168,7703 L 5517,7703 6820,9005 6820,10846 5517,12149 3168,12149 1866,10846 1866,9005 3168,7703 Z"/>
       <path fill="none" stroke="rgb(52,101,164)" d="M 1866,7703 L 1866,7703 Z"/>
       <path fill="none" stroke="rgb(52,101,164)" d="M 6820,12149 L 6820,12149 Z"/>
       <text class="TextShape"><tspan class="TextParagraph" font-family="Liberation Sans, sans-serif" font-size="635px" font-weight="400"><tspan class="TextPosition" x="2274" y="9791"><tspan fill="rgb(0,0,0)" stroke="none">Time → DocID</tspan></tspan></tspan><tspan class="TextParagraph" font-family="Liberation Sans, sans-serif" font-size="635px" font-weight="400"><tspan class="TextPosition" x="3129" y="10502"><tspan fill="rgb(0,0,0)" stroke="none">mapping</tspan></tspan></tspan></text>
      </g>
     </g>
     <g class="com.sun.star.drawing.ConnectorShape">
      <g id="id10">
       <path fill="none" stroke="rgb(0,0,0)" d="M 4365,5045 L 4365,5546 4343,7202 4343,7274"/>
       <path fill="rgb(0,0,0)" stroke="none" d="M 4343,7704 L 4493,7254 4193,7254 4343,7704 Z"/>
      </g>
     </g>
     <g class="com.sun.star.drawing.CustomShape">
      <g id="id11">
       <path fill="rgb(255,255,255)" stroke="none" d="M 1924,16863 C 1723,16863 1522,17064 1522,17265 L 1522,18874 C 1522,19075 1723,19277 1924,19277 L 6327,19277 C 6528,19277 6730,19075 6730,18874 L 6730,17265 C 6730,17064 6528,16863 6327,16863 L 1924,16863 Z M 1522,16863 L 1522,16863 Z M 6730,19277 L 6730,19277 Z"/>
       <path fill="none" stroke="rgb(52,101,164)" d="M 1924,16863 C 1723,16863 1522,17064 1522,17265 L 1522,18874 C 1522,19075 1723,19277 1924,19277 L 6327,19277 C 6528,19277 6730,19075 6730,18874 L 6730,17265 C 6730,17064 6528,16863 6327,16863 L 1924,16863 Z"/>
       <path fill="none" stroke="rgb(52,101,164)" d="M 1522,16863 L 1522,16863 Z"/>
       <path fill="none" stroke="rgb(52,101,164)" d="M 6730,19277 L 6730,19277 Z"/>
       <text class="TextShape"><tspan class="TextParagraph" font-family="Liberation Sans, sans-serif" font-size="635px" font-weight="400"><tspan class="TextPosition" x="2311" y="17935"><tspan fill="rgb(0,0,0)" stroke="none">DocId range:</tspan></tspan></tspan><tspan class="TextParagraph" font-family="Liberation Sans, sans-serif" font-size="635px" font-weight="400"><tspan class="TextPosition" x="1837" y="18646"><tspan fill="rgb(0,0,0)" stroke="none">40,000 – 75,000</tspan></tspan></tspan></text>
      </g>
     </g>
     <g class="com.sun.star.drawing.ConnectorShape">
      <g id="id12">
       <path fill="none" stroke="rgb(0,0,0)" d="M 4090,12149 L 4090,12650 4126,16362 4126,16434"/>
       <path fill="rgb(0,0,0)" stroke="none" d="M 4126,16864 L 4276,16414 3976,16414 4126,16864 Z"/>
      </g>
     </g>
     <g class="com.sun.star.drawing.CustomShape">
      <g id="id13">
       <path fill="rgb(204,204,204)" stroke="none" d="M 13421,7840 C 14501,7840 15326,8307 15326,8919 15326,9531 14501,9999 13421,9999 12341,9999 11516,9531 11516,8919 11516,8307 12341,7840 13421,7840 Z M 11516,7840 L 11516,7840 Z M 15327,10000 L 15327,10000 Z"/>
       <path fill="none" stroke="rgb(52,101,164)" d="M 13421,7840 C 14501,7840 15326,8307 15326,8919 15326,9531 14501,9999 13421,9999 12341,9999 11516,9531 11516,8919 11516,8307 12341,7840 13421,7840 Z"/>
       <path fill="none" stroke="rgb(52,101,164)" d="M 11516,7840 L 11516,7840 Z"/>
       <path fill="none" stroke="rgb(52,101,164)" d="M 15327,10000 L 15327,10000 Z"/>
       <text class="TextShape"><tspan class="TextParagraph" font-family="Liberation Sans, sans-serif" font-size="635px" font-weight="400"><tspan class="TextPosition" x="12541" y="9140"><tspan fill="rgb(0,0,0)" stroke="none">All US</tspan></tspan></tspan></text>
      </g>
     </g>
     <g class="com.sun.star.drawing.CustomShape">
      <g id="id14">
       <path fill="rgb(178,178,178)" stroke="none" d="M 16518,10253 C 17598,10253 18423,10720 18423,11332 18423,11944 17598,12412 16518,12412 15438,12412 14613,11944 14613,11332 14613,10720 15438,10253 16518,10253 Z M 14613,10253 L 14613,10253 Z M 18424,12413 L 18424,12413 Z"/>
       <path fill="none" stroke="rgb(52,101,164)" d="M 16518,10253 C 17598,10253 18423,10720 18423,11332 18423,11944 17598,12412 16518,12412 15438,12412 14613,11944 14613,11332 14613,10720 15438,10253 16518,10253 Z"/>
       <path fill="none" stroke="rgb(52,101,164)" d="M 14613,10253 L 14613,10253 Z"/>
       <path fill="none" stroke="rgb(52,101,164)" d="M 18424,12413 L 18424,12413 Z"/>
       <text class="TextShape"><tspan class="TextParagraph" font-family="Liberation Sans, sans-serif" font-size="635px" font-weight="400"><tspan class="TextPosition" x="15883" y="11553"><tspan fill="rgb(0,0,0)" stroke="none">East</tspan></tspan></tspan></text>
      </g>
     </g>
     <g class="com.sun.star.drawing.CustomShape">
      <g id="id15">
       <path fill="rgb(221,221,221)" stroke="none" d="M 10489,10253 C 11569,10253 12394,10720 12394,11332 12394,11944 11569,12412 10489,12412 9409,12412 8584,11944 8584,11332 8584,10720 9409,10253 10489,10253 Z M 8584,10253 L 8584,10253 Z M 12395,12413 L 12395,12413 Z"/>
       <path fill="none" stroke="rgb(52,101,164)" d="M 10489,10253 C 11569,10253 12394,10720 12394,11332 12394,11944 11569,12412 10489,12412 9409,12412 8584,11944 8584,11332 8584,10720 9409,10253 10489,10253 Z"/>
       <path fill="none" stroke="rgb(52,101,164)" d="M 8584,10253 L 8584,10253 Z"/>
       <path fill="none" stroke="rgb(52,101,164)" d="M 12395,12413 L 12395,12413 Z"/>
       <text class="TextShape"><tspan class="TextParagraph" font-family="Liberation Sans, sans-serif" font-size="635px" font-weight="400"><tspan class="TextPosition" x="9772" y="11553"><tspan fill="rgb(0,0,0)" stroke="none">West</tspan></tspan></tspan></text>
      </g>
     </g>
     <g class="com.sun.star.drawing.CustomShape">
      <g id="id16">
       <path fill="rgb(255,255,255)" stroke="none" d="M 9035,12920 C 9827,12920 10432,13387 10432,13999 10432,14611 9827,15079 9035,15079 8243,15079 7638,14611 7638,13999 7638,13387 8243,12920 9035,12920 Z M 7638,12920 L 7638,12920 Z M 10433,15080 L 10433,15080 Z"/>
       <path fill="none" stroke="rgb(52,101,164)" d="M 9035,12920 C 9827,12920 10432,13387 10432,13999 10432,14611 9827,15079 9035,15079 8243,15079 7638,14611 7638,13999 7638,13387 8243,12920 9035,12920 Z"/>
       <path fill="none" stroke="rgb(52,101,164)" d="M 7638,12920 L 7638,12920 Z"/>
       <path fill="none" stroke="rgb(52,101,164)" d="M 10433,15080 L 10433,15080 Z"/>
       <text class="TextShape"><tspan class="TextParagraph" font-family="Liberation Sans, sans-serif" font-size="635px" font-weight="400"><tspan class="TextPosition" x="8228" y="13865"><tspan fill="rgb(0,0,0)" stroke="none">West </tspan></tspan><tspan class="TextPosition" x="8277" y="14576"><tspan fill="rgb(0,0,0)" stroke="none">coast</tspan></tspan></tspan></text>
      </g>
     </g>
     <g class="com.sun.star.drawing.CustomShape">
      <g id="id17">
       <path fill="rgb(178,178,178)" stroke="none" d="M 12066,12937 C 12858,12937 13463,13404 13463,14016 13463,14628 12858,15096 12066,15096 11274,15096 10669,14628 10669,14016 10669,13404 11274,12937 12066,12937 Z M 10669,12937 L 10669,12937 Z M 13464,15097 L 13464,15097 Z"/>
       <path fill="none" stroke="rgb(52,101,164)" d="M 12066,12937 C 12858,12937 13463,13404 13463,14016 13463,14628 12858,15096 12066,15096 11274,15096 10669,14628 10669,14016 10669,13404 11274,12937 12066,12937 Z"/>
       <path fill="none" stroke="rgb(52,101,164)" d="M 10669,12937 L 10669,12937 Z"/>
       <path fill="none" stroke="rgb(52,101,164)" d="M 13464,15097 L 13464,15097 Z"/>
       <text class="TextShape"><tspan class="TextParagraph" font-family="Liberation Sans, sans-serif" font-size="635px" font-weight="400"><tspan class="TextPosition" x="11259" y="13882"><tspan fill="rgb(0,0,0)" stroke="none">West </tspan></tspan><tspan class="TextPosition" x="11308" y="14593"><tspan fill="rgb(0,0,0)" stroke="none">coast</tspan></tspan></tspan></text>
      </g>
     </g>
     <g class="com.sun.star.drawing.CustomShape">
      <g id="id18">
       <path fill="rgb(255,255,255)" stroke="none" d="M 15037,12922 C 15829,12922 16434,13389 16434,14001 16434,14613 15829,15081 15037,15081 14245,15081 13640,14613 13640,14001 13640,13389 14245,12922 15037,12922 Z M 13640,12922 L 13640,12922 Z M 16435,15082 L 16435,15082 Z"/>
       <path fill="none" stroke="rgb(52,101,164)" d="M 15037,12922 C 15829,12922 16434,13389 16434,14001 16434,14613 15829,15081 15037,15081 14245,15081 13640,14613 13640,14001 13640,13389 14245,12922 15037,12922 Z"/>
       <path fill="none" stroke="rgb(52,101,164)" d="M 13640,12922 L 13640,12922 Z"/>
       <path fill="none" stroke="rgb(52,101,164)" d="M 16435,15082 L 16435,15082 Z"/>
       <text class="TextShape"><tspan class="TextParagraph" font-family="Liberation Sans, sans-serif" font-size="635px" font-weight="400"><tspan class="TextPosition" x="14230" y="13867"><tspan fill="rgb(0,0,0)" stroke="none">West </tspan></tspan><tspan class="TextPosition" x="14279" y="14578"><tspan fill="rgb(0,0,0)" stroke="none">coast</tspan></tspan></tspan></text>
      </g>
     </g>
     <g class="com.sun.star.drawing.CustomShape">
      <g id="id19">
       <path fill="rgb(255,255,255)" stroke="none" d="M 18032,12903 C 18824,12903 19429,13370 19429,13982 19429,14594 18824,15062 18032,15062 17240,15062 16635,14594 16635,13982 16635,13370 17240,12903 18032,12903 Z M 16635,12903 L 16635,12903 Z M 19430,15063 L 19430,15063 Z"/>
       <path fill="none" stroke="rgb(52,101,164)" d="M 18032,12903 C 18824,12903 19429,13370 19429,13982 19429,14594 18824,15062 18032,15062 17240,15062 16635,14594 16635,13982 16635,13370 17240,12903 18032,12903 Z"/>
       <path fill="none" stroke="rgb(52,101,164)" d="M 16635,12903 L 16635,12903 Z"/>
       <path fill="none" stroke="rgb(52,101,164)" d="M 19430,15063 L 19430,15063 Z"/>
       <text class="TextShape"><tspan class="TextParagraph" font-family="Liberation Sans, sans-serif" font-size="635px" font-weight="400"><tspan class="TextPosition" x="17225" y="13848"><tspan fill="rgb(0,0,0)" stroke="none">West </tspan></tspan><tspan class="TextPosition" x="17274" y="14559"><tspan fill="rgb(0,0,0)" stroke="none">coast</tspan></tspan></tspan></text>
      </g>
     </g>
     <g class="com.sun.star.drawing.TextShape">
      <g id="id20">
       <text class="TextShape"><tspan class="TextParagraph" font-family="Liberation Sans, sans-serif" font-size="635px" font-weight="400"><tspan class="TextPosition" x="17012" y="8309"><tspan fill="rgb(0,0,0)" stroke="none">3W Tree</tspan></tspan></tspan></text>
      </g>
     </g>
     <g class="com.sun.star.drawing.ConnectorShape">
      <g id="id21">
       <path fill="none" stroke="rgb(0,0,0)" d="M 12074,9684 L 10489,10254"/>
      </g>
     </g>
     <g class="com.sun.star.drawing.ConnectorShape">
      <g id="id22">
       <path fill="none" stroke="rgb(0,0,0)" d="M 14768,9684 L 16518,10254"/>
      </g>
     </g>
     <g class="com.sun.star.drawing.ConnectorShape">
      <g id="id23">
       <path fill="none" stroke="rgb(0,0,0)" d="M 9142,12097 L 9035,12921"/>
      </g>
     </g>
     <g class="com.sun.star.drawing.ConnectorShape">
      <g id="id24">
       <path fill="none" stroke="rgb(0,0,0)" d="M 11836,12097 L 12066,12938"/>
      </g>
     </g>
     <g class="com.sun.star.drawing.ConnectorShape">
      <g id="id25">
       <path fill="none" stroke="rgb(0,0,0)" d="M 15171,12097 L 15037,12923"/>
      </g>
     </g>
     <g class="com.sun.star.drawing.ConnectorShape">
      <g id="id26">
       <path fill="none" stroke="rgb(0,0,0)" d="M 17865,12097 L 18032,12904"/>
      </g>
     </g>
     <g class="com.sun.star.drawing.CustomShape">
      <g id="id27">
       <path fill="rgb(255,255,255)" stroke="none" d="M 9037,15350 C 8829,15350 8656,15400 8656,15461 L 8656,16128 C 8656,16189 8829,16239 9037,16239 9245,16239 9419,16189 9419,16128 L 9419,15461 C 9419,15400 9245,15350 9037,15350 L 9037,15350 Z M 8656,15350 L 8656,15350 Z M 9419,16240 L 9419,16240 Z"/>
       <path fill="none" stroke="rgb(52,101,164)" d="M 9037,15350 C 8829,15350 8656,15400 8656,15461 L 8656,16128 C 8656,16189 8829,16239 9037,16239 9245,16239 9419,16189 9419,16128 L 9419,15461 C 9419,15400 9245,15350 9037,15350 Z"/>
       <path fill="none" stroke="rgb(52,101,164)" d="M 8656,15350 L 8656,15350 Z"/>
       <path fill="none" stroke="rgb(52,101,164)" d="M 9419,16240 L 9419,16240 Z"/>
       <path fill="rgb(255,255,255)" stroke="none" d="M 9037,15350 C 8829,15350 8656,15400 8656,15461 8656,15521 8829,15572 9037,15572 9245,15572 9419,15521 9419,15461 9419,15400 9245,15350 9037,15350 L 9037,15350 Z M 8656,15350 L 8656,15350 Z M 9419,16240 L 9419,16240 Z"/>
       <path fill="none" stroke="rgb(52,101,164)" d="M 9037,15350 C 8829,15350 8656,15400 8656,15461 8656,15521 8829,15572 9037,15572 9245,15572 9419,15521 9419,15461 9419,15400 9245,15350 9037,15350 Z"/>
       <path fill="none" stroke="rgb(52,101,164)" d="M 8656,15350 L 8656,15350 Z"/>
       <path fill="none" stroke="rgb(52,101,164)" d="M 9419,16240 L 9419,16240 Z"/>
      </g>
     </g>
     <g class="com.sun.star.drawing.CustomShape">
      <g id="id28">
       <path fill="rgb(178,178,178)" stroke="none" d="M 12063,15350 C 11855,15350 11682,15400 11682,15461 L 11682,16128 C 11682,16189 11855,16239 12063,16239 12271,16239 12445,16189 12445,16128 L 12445,15461 C 12445,15400 12271,15350 12063,15350 L 12063,15350 Z M 11682,15350 L 11682,15350 Z M 12445,16240 L 12445,16240 Z"/>
       <path fill="none" stroke="rgb(52,101,164)" d="M 12063,15350 C 11855,15350 11682,15400 11682,15461 L 11682,16128 C 11682,16189 11855,16239 12063,16239 12271,16239 12445,16189 12445,16128 L 12445,15461 C 12445,15400 12271,15350 12063,15350 Z"/>
       <path fill="none" stroke="rgb(52,101,164)" d="M 11682,15350 L 11682,15350 Z"/>
       <path fill="none" stroke="rgb(52,101,164)" d="M 12445,16240 L 12445,16240 Z"/>
       <path fill="rgb(209,209,209)" stroke="none" d="M 12063,15350 C 11855,15350 11682,15400 11682,15461 11682,15521 11855,15572 12063,15572 12271,15572 12445,15521 12445,15461 12445,15400 12271,15350 12063,15350 L 12063,15350 Z M 11682,15350 L 11682,15350 Z M 12445,16240 L 12445,16240 Z"/>
       <path fill="none" stroke="rgb(52,101,164)" d="M 12063,15350 C 11855,15350 11682,15400 11682,15461 11682,15521 11855,15572 12063,15572 12271,15572 12445,15521 12445,15461 12445,15400 12271,15350 12063,15350 Z"/>
       <path fill="none" stroke="rgb(52,101,164)" d="M 11682,15350 L 11682,15350 Z"/>
       <path fill="none" stroke="rgb(52,101,164)" d="M 12445,16240 L 12445,16240 Z"/>
      </g>
     </g>
     <g class="com.sun.star.drawing.CustomShape">
      <g id="id29">
       <path fill="rgb(255,255,255)" stroke="none" d="M 15050,15350 C 14842,15350 14669,15400 14669,15461 L 14669,16128 C 14669,16189 14842,16239 15050,16239 15258,16239 15432,16189 15432,16128 L 15432,15461 C 15432,15400 15258,15350 15050,15350 L 15050,15350 Z M 14669,15350 L 14669,15350 Z M 15432,16240 L 15432,16240 Z"/>
       <path fill="none" stroke="rgb(52,101,164)" d="M 15050,15350 C 14842,15350 14669,15400 14669,15461 L 14669,16128 C 14669,16189 14842,16239 15050,16239 15258,16239 15432,16189 15432,16128 L 15432,15461 C 15432,15400 15258,15350 15050,15350 Z"/>
       <path fill="none" stroke="rgb(52,101,164)" d="M 14669,15350 L 14669,15350 Z"/>
       <path fill="none" stroke="rgb(52,101,164)" d="M 15432,16240 L 15432,16240 Z"/>
       <path fill="rgb(255,255,255)" stroke="none" d="M 15050,15350 C 14842,15350 14669,15400 14669,15461 14669,15521 14842,15572 15050,15572 15258,15572 15432,15521 15432,15461 15432,15400 15258,15350 15050,15350 L 15050,15350 Z M 14669,15350 L 14669,15350 Z M 15432,16240 L 15432,16240 Z"/>
       <path fill="none" stroke="rgb(52,101,164)" d="M 15050,15350 C 14842,15350 14669,15400 14669,15461 14669,15521 14842,15572 15050,15572 15258,15572 15432,15521 15432,15461 15432,15400 15258,15350 15050,15350 Z"/>
       <path fill="none" stroke="rgb(52,101,164)" d="M 14669,15350 L 14669,15350 Z"/>
       <path fill="none" stroke="rgb(52,101,164)" d="M 15432,16240 L 15432,16240 Z"/>
      </g>
     </g>
     <g class="com.sun.star.drawing.CustomShape">
      <g id="id30">
       <path fill="rgb(255,255,255)" stroke="none" d="M 18039,15350 C 17831,15350 17658,15400 17658,15461 L 17658,16128 C 17658,16189 17831,16239 18039,16239 18247,16239 18421,16189 18421,16128 L 18421,15461 C 18421,15400 18247,15350 18039,15350 L 18039,15350 Z M 17658,15350 L 17658,15350 Z M 18421,16240 L 18421,16240 Z"/>
       <path fill="none" stroke="rgb(52,101,164)" d="M 18039,15350 C 17831,15350 17658,15400 17658,15461 L 17658,16128 C 17658,16189 17831,16239 18039,16239 18247,16239 18421,16189 18421,16128 L 18421,15461 C 18421,15400 18247,15350 18039,15350 Z"/>
       <path fill="none" stroke="rgb(52,101,164)" d="M 17658,15350 L 17658,15350 Z"/>
       <path fill="none" stroke="rgb(52,101,164)" d="M 18421,16240 L 18421,16240 Z"/>
       <path fill="rgb(255,255,255)" stroke="none" d="M 18039,15350 C 17831,15350 17658,15400 17658,15461 17658,15521 17831,15572 18039,15572 18247,15572 18421,15521 18421,15461 18421,15400 18247,15350 18039,15350 L 18039,15350 Z M 17658,15350 L 17658,15350 Z M 18421,16240 L 18421,16240 Z"/>
       <path fill="none" stroke="rgb(52,101,164)" d="M 18039,15350 C 17831,15350 17658,15400 17658,15461 17658,15521 17831,15572 18039,15572 18247,15572 18421,15521 18421,15461 18421,15400 18247,15350 18039,15350 Z"/>
       <path fill="none" stroke="rgb(52,101,164)" d="M 17658,15350 L 17658,15350 Z"/>
       <path fill="none" stroke="rgb(52,101,164)" d="M 18421,16240 L 18421,16240 Z"/>
      </g>
     </g>
     <g class="com.sun.star.drawing.CustomShape">
      <g id="id31">
       <path fill="rgb(178,178,178)" stroke="none" d="M 19048,10888 C 18840,10888 18667,10938 18667,10999 L 18667,11666 C 18667,11727 18840,11777 19048,11777 19256,11777 19430,11727 19430,11666 L 19430,10999 C 19430,10938 19256,10888 19048,10888 L 19048,10888 Z M 18667,10888 L 18667,10888 Z M 19430,11778 L 19430,11778 Z"/>
       <path fill="none" stroke="rgb(52,101,164)" d="M 19048,10888 C 18840,10888 18667,10938 18667,10999 L 18667,11666 C 18667,11727 18840,11777 19048,11777 19256,11777 19430,11727 19430,11666 L 19430,10999 C 19430,10938 19256,10888 19048,10888 Z"/>
       <path fill="none" stroke="rgb(52,101,164)" d="M 18667,10888 L 18667,10888 Z"/>
       <path fill="none" stroke="rgb(52,101,164)" d="M 19430,11778 L 19430,11778 Z"/>
       <path fill="rgb(209,209,209)" stroke="none" d="M 19048,10888 C 18840,10888 18667,10938 18667,10999 18667,11059 18840,11110 19048,11110 19256,11110 19430,11059 19430,10999 19430,10938 19256,10888 19048,10888 L 19048,10888 Z M 18667,10888 L 18667,10888 Z M 19430,11778 L 19430,11778 Z"/>
       <path fill="none" stroke="rgb(52,101,164)" d="M 19048,10888 C 18840,10888 18667,10938 18667,10999 18667,11059 18840,11110 19048,11110 19256,11110 19430,11059 19430,10999 19430,10938 19256,10888 19048,10888 Z"/>
       <path fill="none" stroke="rgb(52,101,164)" d="M 18667,10888 L 18667,10888 Z"/>
       <path fill="none" stroke="rgb(52,101,164)" d="M 19430,11778 L 19430,11778 Z"/>
      </g>
     </g>
     <g class="com.sun.star.drawing.ConnectorShape">
      <g id="id32">
       <path fill="none" stroke="rgb(0,0,0)" d="M 18423,11334 L 18667,11333"/>
      </g>
     </g>
     <g class="com.sun.star.drawing.ConnectorShape">
      <g id="id33">
       <path fill="none" stroke="rgb(0,0,0)" d="M 9035,15080 L 9037,15351"/>
      </g>
     </g>
     <g class="com.sun.star.drawing.ConnectorShape">
      <g id="id34">
       <path fill="none" stroke="rgb(0,0,0)" d="M 12066,15097 L 12063,15351"/>
      </g>
     </g>
     <g class="com.sun.star.drawing.ConnectorShape">
      <g id="id35">
       <path fill="none" stroke="rgb(0,0,0)" d="M 15037,15082 L 15050,15351"/>
      </g>
     </g>
     <g class="com.sun.star.drawing.ConnectorShape">
      <g id="id36">
       <path fill="none" stroke="rgb(0,0,0)" d="M 18032,15063 L 18039,15351"/>
      </g>
     </g>
     <g class="com.sun.star.drawing.CustomShape">
      <g id="id37">
       <path fill="rgb(255,255,255)" stroke="none" d="M 10814,17001 C 10613,17001 10412,17202 10412,17403 L 10412,19012 C 10412,19213 10613,19415 10814,19415 L 18900,19415 C 19101,19415 19303,19213 19303,19012 L 19303,17403 C 19303,17202 19101,17001 18900,17001 L 10814,17001 Z M 10412,17001 L 10412,17001 Z M 19303,19415 L 19303,19415 Z"/>
       <path fill="none" stroke="rgb(52,101,164)" d="M 10814,17001 C 10613,17001 10412,17202 10412,17403 L 10412,19012 C 10412,19213 10613,19415 10814,19415 L 18900,19415 C 19101,19415 19303,19213 19303,19012 L 19303,17403 C 19303,17202 19101,17001 18900,17001 L 10814,17001 Z"/>
       <path fill="none" stroke="rgb(52,101,164)" d="M 10412,17001 L 10412,17001 Z"/>
       <path fill="none" stroke="rgb(52,101,164)" d="M 19303,19415 L 19303,19415 Z"/>
       <text class="TextShape"><tspan class="TextParagraph" font-family="Liberation Sans, sans-serif" font-size="635px" font-weight="400"><tspan class="TextPosition" x="12021" y="18428"><tspan fill="rgb(0,0,0)" stroke="none">Inverted indexes set</tspan></tspan></tspan></text>
      </g>
     </g>
     <g class="com.sun.star.drawing.ConnectorShape">
      <g id="id38">
       <path fill="none" stroke="rgb(0,0,0)" d="M 19429,11333 C 19768,11333 19810,16518 19481,17882"/>
       <path fill="rgb(0,0,0)" stroke="none" d="M 19302,18208 L 19646,17881 19381,17740 19302,18208 Z"/>
      </g>
     </g>
     <g class="com.sun.star.drawing.ConnectorShape">
      <g id="id39">
       <path fill="none" stroke="rgb(0,0,0)" d="M 11682,15795 C 9026,15795 9540,17458 10055,18023"/>
       <path fill="rgb(0,0,0)" stroke="none" d="M 10412,18208 L 10088,17862 9945,18126 10412,18208 Z"/>
      </g>
     </g>
     <g class="com.sun.star.drawing.ConnectorShape">
      <g id="id40">
       <path fill="none" stroke="rgb(0,0,0)" d="M 9826,5045 C 9826,6678 12848,5774 13428,6824"/>
       <path fill="rgb(0,0,0)" stroke="none" d="M 13523,7223 L 13559,6750 13268,6823 13523,7223 Z"/>
      </g>
     </g>
     <g class="com.sun.star.drawing.ConnectorShape">
      <g id="id41">
       <path fill="none" stroke="rgb(0,0,0)" d="M 15160,5045 C 15160,6678 13838,5783 13570,6804"/>
       <path fill="rgb(0,0,0)" stroke="none" d="M 13523,7223 L 13726,6794 13428,6758 13523,7223 Z"/>
      </g>
     </g>
     <g class="com.sun.star.drawing.CustomShape">
      <g id="id42">
       <path fill="rgb(255,255,255)" stroke="none" d="M 10144,20465 C 11944,20465 13319,20932 13319,21544 13319,22156 11944,22624 10144,22624 8344,22624 6969,22156 6969,21544 6969,20932 8344,20465 10144,20465 Z M 6969,20465 L 6969,20465 Z M 13320,22625 L 13320,22625 Z"/>
       <path fill="none" stroke="rgb(52,101,164)" d="M 10144,20465 C 11944,20465 13319,20932 13319,21544 13319,22156 11944,22624 10144,22624 8344,22624 6969,22156 6969,21544 6969,20932 8344,20465 10144,20465 Z"/>
       <path fill="none" stroke="rgb(52,101,164)" d="M 6969,20465 L 6969,20465 Z"/>
       <path fill="none" stroke="rgb(52,101,164)" d="M 13320,22625 L 13320,22625 Z"/>
       <text class="TextShape"><tspan class="TextParagraph" font-family="Liberation Sans, sans-serif" font-size="635px" font-weight="400"><tspan class="TextPosition" x="7801" y="21765"><tspan fill="rgb(0,0,0)" stroke="none">Query processor</tspan></tspan></tspan></text>
      </g>
     </g>
     <g class="com.sun.star.drawing.ConnectorShape">
      <g id="id43">
       <path fill="none" stroke="rgb(0,0,0)" d="M 3880,19277 C 3880,20790 4602,21410 6046,21529"/>
       <path fill="rgb(0,0,0)" stroke="none" d="M 6475,21546 L 6032,21378 6019,21677 6475,21546 Z"/>
      </g>
     </g>
     <g class="com.sun.star.drawing.ConnectorShape">
      <g id="id44">
       <path fill="none" stroke="rgb(0,0,0)" d="M 14857,19415 C 14857,20836 14487,21318 13745,21498"/>
       <path fill="rgb(0,0,0)" stroke="none" d="M 13319,21546 L 13783,21642 13748,21344 13319,21546 Z"/>
      </g>
     </g>
     <g class="com.sun.star.drawing.CustomShape">
      <g id="id45">
       <path fill="rgb(255,255,255)" stroke="none" d="M 7444,23501 C 7243,23501 7042,23702 7042,23903 L 7042,25512 C 7042,25713 7243,25915 7444,25915 L 12863,25915 C 13064,25915 13266,25713 13266,25512 L 13266,23903 C 13266,23702 13064,23501 12863,23501 L 7444,23501 Z M 7042,23501 L 7042,23501 Z M 13266,25915 L 13266,25915 Z"/>
       <path fill="none" stroke="rgb(52,101,164)" d="M 7444,23501 C 7243,23501 7042,23702 7042,23903 L 7042,25512 C 7042,25713 7243,25915 7444,25915 L 12863,25915 C 13064,25915 13266,25713 13266,25512 L 13266,23903 C 13266,23702 13064,23501 12863,23501 L 7444,23501 Z"/>
       <path fill="none" stroke="rgb(52,101,164)" d="M 7042,23501 L 7042,23501 Z"/>
       <path fill="none" stroke="rgb(52,101,164)" d="M 13266,25915 L 13266,25915 Z"/>
       <text class="TextShape"><tspan class="TextParagraph" font-family="Liberation Sans, sans-serif" font-size="635px" font-weight="400"><tspan class="TextPosition" x="7883" y="24928"><tspan fill="rgb(0,0,0)" stroke="none">Relevant results</tspan></tspan></tspan></text>
      </g>
     </g>
     <g class="com.sun.star.drawing.ConnectorShape">
      <g id="id46">
       <path fill="none" stroke="rgb(0,0,0)" d="M 10144,22625 L 10144,23126 10154,23000 10154,23072"/>
       <path fill="rgb(0,0,0)" stroke="none" d="M 10154,23502 L 10304,23052 10004,23052 10154,23502 Z"/>
      </g>
     </g>
    </g>
   </g>
  </g>
 </g>
</svg>