\relax 
\ifx\hyper@anchor\@undefined
\global \let \oldcontentsline\contentsline
\gdef \contentsline#1#2#3#4{\oldcontentsline{#1}{#2}{#3}}
\global \let \oldnewlabel\newlabel
\gdef \newlabel#1#2{\newlabelxx{#1}#2}
\gdef \newlabelxx#1#2#3#4#5#6{\oldnewlabel{#1}{{#2}{#3}}}
\AtEndDocument{\let \contentsline\oldcontentsline
\let \newlabel\oldnewlabel}
\else
\global \let \hyper@last\relax 
\fi

\citation{java07}
\citation{java07}
\@writefile{toc}{\contentsline {section}{\numberline {1}Introducton}{\thepage }{section.1}}
\@writefile{toc}{\contentsline {subsection}{\numberline {1.1}Motivation}{\thepage }{subsection.1.1}}
\citation{zhou05}
\citation{cozza13}
\citation{chen13}
\citation{zhang13}
\citation{jensen13}
\citation{zobel06}
\citation{dean09}
\citation{brin98}
\citation{baeza11}
\citation{mani04}
\citation{metzler09}
\citation{gey11}
\citation{busch12}
\citation{felipe08}
\citation{christ11}
\citation{christ11}
\citation{christ11}
\citation{papdias02}
\citation{kollios08}
\citation{guttman84}
\citation{bentley75}
\citation{busch12}
\citation{teevan11}
\citation{java07}
\citation{mano06}
\@writefile{toc}{\contentsline {subsection}{\numberline {1.2}System overview}{\thepage }{subsection.1.2}}
\@writefile{toc}{\contentsline {section}{\numberline {2}Related work}{\thepage }{section.2}}
\newlabel{sec:relwork}{{2}{\thepage }{Related work\relax }{section.2}{}}
\@writefile{toc}{\contentsline {section}{\numberline {3}Architecture}{\thepage }{section.3}}
\newlabel{sec:arch}{{3}{\thepage }{Architecture\relax }{section.3}{}}
\citation{chen13}
\citation{zhou05}
\citation{baeza11}
\citation{lucene}
\@writefile{lof}{\contentsline {figure}{\numberline {1}{\ignorespaces \relax \fontsize  {8}{9pt}\selectfont  \abovedisplayskip 7.6pt plus 3pt minus 4pt\belowdisplayskip \abovedisplayskip \abovedisplayshortskip \z@ plus2pt\belowdisplayshortskip 3.6pt plus2pt minus 2pt \def \leftmargin \leftmargini \parsep 3.6pt plus 2pt minus 1pt\topsep 7.2pt plus 2pt minus 4pt\itemsep 3.6pt plus 2pt minus 1pt{\leftmargin \leftmargini \topsep 4pt plus 2pt minus 2pt\parsep 2pt plus 1pt minus 1pt \itemsep \parsep }{Geographic distribution of tweets}}}{\thepage }{figure.1}}
\newlabel{fig:geof}{{1}{\thepage }{\small {Geographic distribution of tweets}\relax }{figure.1}{}}
\@writefile{toc}{\contentsline {subsection}{\numberline {3.1}Spatial Dimension}{\thepage }{subsection.3.1}}
\newlabel{subsec:spatial}{{3.1}{\thepage }{Spatial Dimension\relax }{subsection.3.1}{}}
\@writefile{lof}{\contentsline {figure}{\numberline {2}{\ignorespaces \relax \fontsize  {8}{9pt}\selectfont  \abovedisplayskip 7.6pt plus 3pt minus 4pt\belowdisplayskip \abovedisplayskip \abovedisplayshortskip \z@ plus2pt\belowdisplayshortskip 3.6pt plus2pt minus 2pt \def \leftmargin \leftmargini \parsep 3.6pt plus 2pt minus 1pt\topsep 7.2pt plus 2pt minus 4pt\itemsep 3.6pt plus 2pt minus 1pt{\leftmargin \leftmargini \topsep 4pt plus 2pt minus 2pt\parsep 2pt plus 1pt minus 1pt \itemsep \parsep }{A diagram of the USA spatially partitioned by 3W. Note smaller boxes in areas with high tweet volume}}}{\thepage }{figure.2}}
\newlabel{fig:spatialpartf}{{2}{\thepage }{\small {A diagram of the USA spatially partitioned by 3W. Note smaller boxes in areas with high tweet volume}\relax }{figure.2}{}}
\@writefile{loa}{\contentsline {algorithm}{\numberline {1}{\ignorespaces Spatial partitioning of the data}}{\thepage }{algorithm.1}}
\newlabel{alg:spatpartalg}{{1}{\thepage }{Spatial Dimension\relax }{algorithm.1}{}}
\@writefile{toc}{\contentsline {subsection}{\numberline {3.2}Temporal Dimension}{\thepage }{subsection.3.2}}
\newlabel{subsec:temp}{{3.2}{\thepage }{Temporal Dimension\relax }{subsection.3.2}{}}
\citation{yan09}
\citation{ding10}
\citation{perego04}
\citation{blanco06}
\citation{blandford02}
\citation{shieh03}
\@writefile{lof}{\contentsline {figure}{\numberline {3}{\ignorespaces \relax \fontsize  {8}{9pt}\selectfont  \abovedisplayskip 7.6pt plus 3pt minus 4pt\belowdisplayskip \abovedisplayskip \abovedisplayshortskip \z@ plus2pt\belowdisplayshortskip 3.6pt plus2pt minus 2pt \def \leftmargin \leftmargini \parsep 3.6pt plus 2pt minus 1pt\topsep 7.2pt plus 2pt minus 4pt\itemsep 3.6pt plus 2pt minus 1pt{\leftmargin \leftmargini \topsep 4pt plus 2pt minus 2pt\parsep 2pt plus 1pt minus 1pt \itemsep \parsep }{Total number of tweets accumulated during 24 hour period}}}{\thepage }{figure.3}}
\newlabel{fig:temporalcurve}{{3}{\thepage }{\small {Total number of tweets accumulated during 24 hour period}\relax }{figure.3}{}}
\@writefile{lof}{\contentsline {figure}{\numberline {4}{\ignorespaces \relax \fontsize  {8}{9pt}\selectfont  \abovedisplayskip 7.6pt plus 3pt minus 4pt\belowdisplayskip \abovedisplayskip \abovedisplayshortskip \z@ plus2pt\belowdisplayshortskip 3.6pt plus2pt minus 2pt \def \leftmargin \leftmargini \parsep 3.6pt plus 2pt minus 1pt\topsep 7.2pt plus 2pt minus 4pt\itemsep 3.6pt plus 2pt minus 1pt{\leftmargin \leftmargini \topsep 4pt plus 2pt minus 2pt\parsep 2pt plus 1pt minus 1pt \itemsep \parsep }{System Architecute overview}}}{\thepage }{figure.4}}
\newlabel{fig:sysarchf}{{4}{\thepage }{\small {System Architecute overview}\relax }{figure.4}{}}
\@writefile{toc}{\contentsline {subsection}{\numberline {3.3}Query processing}{\thepage }{subsection.3.3}}
\newlabel{subsec:qp}{{3.3}{\thepage }{Query processing\relax }{subsection.3.3}{}}
\@writefile{toc}{\contentsline {subsection}{\numberline {3.4}Text Indexes}{\thepage }{subsection.3.4}}
\newlabel{subsec:text}{{3.4}{\thepage }{Text Indexes\relax }{subsection.3.4}{}}
\citation{han11}
\citation{xue11}
\citation{busch12}
\citation{scholer02}
\citation{manning09}
\citation{lucene}
\citation{ding11}
\@writefile{toc}{\contentsline {subsection}{\numberline {3.5}Time overhead}{\thepage }{subsection.3.5}}
\newlabel{subsubsec:qcanal}{{3.5}{\thepage }{Time overhead\relax }{subsection.3.5}{}}
\@writefile{toc}{\contentsline {subsubsection}{\numberline {3.5.1}Query cost analysis}{\thepage }{subsubsection.3.5.1}}
\newlabel{subsubsec:qcanal}{{3.5.1}{\thepage }{Query cost analysis\relax }{subsubsection.3.5.1}{}}
\@writefile{toc}{\contentsline {subsubsection}{\numberline {3.5.2}Mitigating the overhead}{\thepage }{subsubsection.3.5.2}}
\newlabel{subsubsec:mitigate}{{3.5.2}{\thepage }{Mitigating the overhead\relax }{subsubsection.3.5.2}{}}
\@writefile{toc}{\contentsline {section}{\numberline {4}Experimental evaluation}{\thepage }{section.4}}
\newlabel{sec:exp}{{4}{\thepage }{Experimental evaluation\relax }{section.4}{}}
\@writefile{toc}{\contentsline {subsection}{\numberline {4.1}Twitter data specific tweaks}{\thepage }{subsection.4.1}}
\newlabel{subsec:twtweaks}{{4.1}{\thepage }{Twitter data specific tweaks\relax }{subsection.4.1}{}}
\citation{zhoy05}
\citation{zhang13}
\@writefile{toc}{\contentsline {subsection}{\numberline {4.2}Query Log Generation}{\thepage }{subsection.4.2}}
\newlabel{subsec:qlog}{{4.2}{\thepage }{Query Log Generation\relax }{subsection.4.2}{}}
\@writefile{toc}{\contentsline {subsection}{\numberline {4.3}Experiments}{\thepage }{subsection.4.3}}
\newlabel{subsec:experiments}{{4.3}{\thepage }{Experiments\relax }{subsection.4.3}{}}
\bibcite{java07}{1}
\bibcite{zobel06}{2}
\bibcite{dean09}{3}
\bibcite{brin98}{4}
\bibcite{baeza11}{5}
\bibcite{mani04}{6}
\bibcite{metzler09}{7}
\bibcite{gey11}{8}
\bibcite{busch12}{9}
\@writefile{lot}{\contentsline {table}{\numberline {1}{\ignorespaces \relax \fontsize  {8}{9pt}\selectfont  \abovedisplayskip 7.6pt plus 3pt minus 4pt\belowdisplayskip \abovedisplayskip \abovedisplayshortskip \z@ plus2pt\belowdisplayshortskip 3.6pt plus2pt minus 2pt \def \leftmargin \leftmargini \topsep 4pt plus 2pt minus 2pt\parsep 2pt plus 1pt minus 1pt \itemsep \parsep {\leftmargin \leftmargini \topsep 4pt plus 2pt minus 2pt\parsep 2pt plus 1pt minus 1pt \itemsep \parsep }{Average query time (in ms) for queries varying by temporal range}}}{\thepage }{table.1}}
\newlabel{fig:exp1}{{1}{\thepage }{\small {Average query time (in ms) for queries varying by temporal range}\relax }{table.1}{}}
\@writefile{lot}{\contentsline {table}{\numberline {2}{\ignorespaces \relax \fontsize  {8}{9pt}\selectfont  \abovedisplayskip 7.6pt plus 3pt minus 4pt\belowdisplayskip \abovedisplayskip \abovedisplayshortskip \z@ plus2pt\belowdisplayshortskip 3.6pt plus2pt minus 2pt \def \leftmargin \leftmargini \topsep 4pt plus 2pt minus 2pt\parsep 2pt plus 1pt minus 1pt \itemsep \parsep {\leftmargin \leftmargini \topsep 4pt plus 2pt minus 2pt\parsep 2pt plus 1pt minus 1pt \itemsep \parsep }{Average query time (in ms) for queries varying by spatial range}}}{\thepage }{table.2}}
\newlabel{fig:exp2}{{2}{\thepage }{\small {Average query time (in ms) for queries varying by spatial range}\relax }{table.2}{}}
\@writefile{toc}{\contentsline {subsection}{\numberline {4.4}Discussion}{\thepage }{subsection.4.4}}
\@writefile{toc}{\contentsline {section}{\numberline {5}Conclusion and future work}{\thepage }{section.5}}
\newlabel{sec:fut}{{5}{\thepage }{Conclusion and future work\relax }{section.5}{}}
\@writefile{toc}{\contentsline {section}{\numberline {6}References}{\thepage }{section.6}}
\bibcite{felipe08}{10}
\bibcite{christ11}{11}
\bibcite{papdias02}{12}
\bibcite{kollios08}{13}
\bibcite{guttman84}{14}
\bibcite{bentley75}{15}
\bibcite{teevan11}{16}
\bibcite{han11}{17}
\bibcite{xue11}{18}
\bibcite{mano06}{19}
\bibcite{yan09}{20}
\bibcite{ding10}{21}
\bibcite{perego04}{22}
\bibcite{blanco06}{23}
\bibcite{blandford02}{24}
\bibcite{shieh03}{25}
\bibcite{scholer02}{26}
\bibcite{manning09}{27}
\bibcite{ding11}{28}
\bibcite{cao10}{29}
\bibcite{long05}{30}
\bibcite{chen06}{31}
\bibcite{lucene}{32}
\bibcite{zhou05}{33}
\bibcite{chen13}{34}
\bibcite{zhang13}{35}
\bibcite{cozza13}{36}
\bibcite{jensen13}{37}
\bibcite{dummy}{38}
