\relax 
\ifx\hyper@anchor\@undefined
\global \let \oldcontentsline\contentsline
\gdef \contentsline#1#2#3#4{\oldcontentsline{#1}{#2}{#3}}
\global \let \oldnewlabel\newlabel
\gdef \newlabel#1#2{\newlabelxx{#1}#2}
\gdef \newlabelxx#1#2#3#4#5#6{\oldnewlabel{#1}{{#2}{#3}}}
\AtEndDocument{\let \contentsline\oldcontentsline
\let \newlabel\oldnewlabel}
\else
\global \let \hyper@last\relax 
\fi

\citation{zobel06}
\citation{dean09}
\citation{brin98}
\citation{baeza11}
\citation{mani04}
\citation{metzler09}
\citation{gey11}
\citation{busch12}
\citation{felipe08}
\citation{zhou05}
\citation{chen13}
\citation{christ11}
\citation{zhang13}
\citation{christ11}
\citation{christ11}
\citation{papdias02}
\citation{kollios08}
\citation{jensen14}
\citation{cozza13}
\citation{guttman84}
\citation{bentley75}
\citation{busch12}
\citation{teevan11}
\citation{java07}
\bibcite{java07}{1}
\bibcite{zobel06}{2}
\bibcite{dean09}{3}
\bibcite{brin98}{4}
\bibcite{baeza11}{5}
\bibcite{mani04}{6}
\bibcite{metzler09}{7}
\bibcite{gey11}{8}
\bibcite{busch12}{9}
\bibcite{felipe08}{10}
\bibcite{christ11}{11}
\bibcite{papdias02}{12}
\bibcite{kollios08}{13}
\bibcite{guttman84}{14}
\bibcite{bentley75}{15}
\bibcite{teevan11}{16}
\bibcite{han11}{17}
\bibcite{xue11}{18}
\bibcite{mano06}{19}
\bibcite{yan09}{20}
\bibcite{ding10}{21}
\bibcite{perego04}{22}
\bibcite{blanco06}{23}
\@writefile{toc}{\contentsline {section}{\numberline {1}Related work}{\thepage }{section.1}}
\newlabel{sec:relwork}{{1}{\thepage }{Related work\relax }{section.1}{}}
\@writefile{toc}{\contentsline {section}{\numberline {2}References}{\thepage }{section.2}}
\bibcite{blandford02}{24}
\bibcite{shieh03}{25}
\bibcite{scholer02}{26}
\bibcite{manning09}{27}
\bibcite{ding11}{28}
\bibcite{cao10}{29}
\bibcite{long05}{30}
\bibcite{chen06}{31}
\bibcite{lucene}{32}
\bibcite{zhou05}{33}
\bibcite{chen13}{34}
\bibcite{zhang13}{35}
\bibcite{cozza13}{36}
\bibcite{jensen13}{37}
\bibcite{jensen14}{38}
